%YAML 1.1
%TAG !u! tag:unity3d.com,2011:
--- !u!1 &7072444061591710752
GameObject:
  m_ObjectHideFlags: 0
  m_CorrespondingSourceObject: {fileID: 0}
  m_PrefabInstance: {fileID: 0}
  m_PrefabAsset: {fileID: 0}
  serializedVersion: 6
  m_Component:
  - component: {fileID: 7072444061591351744}
  m_Layer: 0
  m_Name: Toe_Right
  m_TagString: Untagged
  m_Icon: {fileID: 0}
  m_NavMeshLayer: 0
  m_StaticEditorFlags: 0
  m_IsActive: 1
--- !u!4 &7072444061591351744
Transform:
  m_ObjectHideFlags: 0
  m_CorrespondingSourceObject: {fileID: 0}
  m_PrefabInstance: {fileID: 0}
  m_PrefabAsset: {fileID: 0}
  m_GameObject: {fileID: 7072444061591710752}
  m_LocalRotation: {x: -0.0013655907, y: -0.005181019, z: -0.24785995, w: 0.9687811}
  m_LocalPosition: {x: -13.771146, y: 2.1316282e-14, z: 1.0658141e-14}
  m_LocalScale: {x: 1, y: 1, z: 1}
  m_Children:
  - {fileID: 7072444061591351748}
  m_Father: {fileID: 7072444061591351720}
  m_RootOrder: 0
  m_LocalEulerAnglesHint: {x: 0, y: 0, z: 0}
--- !u!1 &7072444061591710754
GameObject:
  m_ObjectHideFlags: 0
  m_CorrespondingSourceObject: {fileID: 0}
  m_PrefabInstance: {fileID: 0}
  m_PrefabAsset: {fileID: 0}
  serializedVersion: 6
  m_Component:
  - component: {fileID: 7072444061591351746}
  m_Layer: 0
  m_Name: Toetip_Left
  m_TagString: Untagged
  m_Icon: {fileID: 0}
  m_NavMeshLayer: 0
  m_StaticEditorFlags: 0
  m_IsActive: 1
--- !u!4 &7072444061591351746
Transform:
  m_ObjectHideFlags: 0
  m_CorrespondingSourceObject: {fileID: 0}
  m_PrefabInstance: {fileID: 0}
  m_PrefabAsset: {fileID: 0}
  m_GameObject: {fileID: 7072444061591710754}
  m_LocalRotation: {x: 0.00016529544, y: -0.016936114, z: -0.0047631934, w: 0.99984527}
  m_LocalPosition: {x: -17.883871, y: 3.5527137e-15, z: 2.1316282e-14}
  m_LocalScale: {x: 1, y: 1, z: 1}
  m_Children: []
  m_Father: {fileID: 7072444061591351774}
  m_RootOrder: 0
  m_LocalEulerAnglesHint: {x: 0, y: 0, z: 0}
--- !u!1 &7072444061591710756
GameObject:
  m_ObjectHideFlags: 0
  m_CorrespondingSourceObject: {fileID: 0}
  m_PrefabInstance: {fileID: 0}
  m_PrefabAsset: {fileID: 0}
  serializedVersion: 6
  m_Component:
  - component: {fileID: 7072444061591351748}
  m_Layer: 0
  m_Name: Toetip_Right
  m_TagString: Untagged
  m_Icon: {fileID: 0}
  m_NavMeshLayer: 0
  m_StaticEditorFlags: 0
  m_IsActive: 1
--- !u!4 &7072444061591351748
Transform:
  m_ObjectHideFlags: 0
  m_CorrespondingSourceObject: {fileID: 0}
  m_PrefabInstance: {fileID: 0}
  m_PrefabAsset: {fileID: 0}
  m_GameObject: {fileID: 7072444061591710756}
  m_LocalRotation: {x: -0.00028878966, y: 0.016934738, z: -0.012053749, w: 0.99978393}
  m_LocalPosition: {x: -17.883856, y: -2.6645353e-15, z: -1.4210855e-14}
  m_LocalScale: {x: 1, y: 1, z: 1}
  m_Children: []
  m_Father: {fileID: 7072444061591351744}
  m_RootOrder: 0
  m_LocalEulerAnglesHint: {x: 0, y: 0, z: 0}
--- !u!1 &7072444061591710758
GameObject:
  m_ObjectHideFlags: 0
  m_CorrespondingSourceObject: {fileID: 0}
  m_PrefabInstance: {fileID: 0}
  m_PrefabAsset: {fileID: 0}
  serializedVersion: 6
  m_Component:
  - component: {fileID: 7072444061591351750}
  m_Layer: 0
  m_Name: Trigger_Right
  m_TagString: Untagged
  m_Icon: {fileID: 0}
  m_NavMeshLayer: 0
  m_StaticEditorFlags: 0
  m_IsActive: 1
--- !u!4 &7072444061591351750
Transform:
  m_ObjectHideFlags: 0
  m_CorrespondingSourceObject: {fileID: 0}
  m_PrefabInstance: {fileID: 0}
  m_PrefabAsset: {fileID: 0}
  m_GameObject: {fileID: 7072444061591710758}
  m_LocalRotation: {x: -0.0031178175, y: 0.0071248533, z: 0.40088162, w: 0.91609687}
  m_LocalPosition: {x: -9.913989, y: -10.731702, z: 9.284221}
  m_LocalScale: {x: 1, y: 1, z: 1}
  m_Children: []
  m_Father: {fileID: 7072444061591351738}
  m_RootOrder: 1
  m_LocalEulerAnglesHint: {x: 0, y: 0, z: 0}
--- !u!1 &7072444061591710760
GameObject:
  m_ObjectHideFlags: 0
  m_CorrespondingSourceObject: {fileID: 0}
  m_PrefabInstance: {fileID: 0}
  m_PrefabAsset: {fileID: 0}
  serializedVersion: 6
  m_Component:
  - component: {fileID: 7072444061591351752}
  m_Layer: 0
  m_Name: UpperArm_Left
  m_TagString: Untagged
  m_Icon: {fileID: 0}
  m_NavMeshLayer: 0
  m_StaticEditorFlags: 0
  m_IsActive: 1
--- !u!4 &7072444061591351752
Transform:
  m_ObjectHideFlags: 0
  m_CorrespondingSourceObject: {fileID: 0}
  m_PrefabInstance: {fileID: 0}
  m_PrefabAsset: {fileID: 0}
  m_GameObject: {fileID: 7072444061591710760}
  m_LocalRotation: {x: -0.029700447, y: -0.15896967, z: -0.18123563, w: 0.97005165}
  m_LocalPosition: {x: -15.111847, y: 0, z: -3.7303494e-14}
  m_LocalScale: {x: 1, y: 1, z: 1}
  m_Children:
  - {fileID: 7072444061591351686}
  m_Father: {fileID: 7072444061591351776}
  m_RootOrder: 1
  m_LocalEulerAnglesHint: {x: 0, y: 0, z: 0}
--- !u!1 &7072444061591710762
GameObject:
  m_ObjectHideFlags: 0
  m_CorrespondingSourceObject: {fileID: 0}
  m_PrefabInstance: {fileID: 0}
  m_PrefabAsset: {fileID: 0}
  serializedVersion: 6
  m_Component:
  - component: {fileID: 7072444061591351754}
  m_Layer: 0
  m_Name: UpperArm_Right
  m_TagString: Untagged
  m_Icon: {fileID: 0}
  m_NavMeshLayer: 0
  m_StaticEditorFlags: 0
  m_IsActive: 1
--- !u!4 &7072444061591351754
Transform:
  m_ObjectHideFlags: 0
  m_CorrespondingSourceObject: {fileID: 0}
  m_PrefabInstance: {fileID: 0}
  m_PrefabAsset: {fileID: 0}
  m_GameObject: {fileID: 7072444061591710762}
  m_LocalRotation: {x: 0.029697837, y: 0.15896995, z: -0.18122736, w: 0.97005326}
  m_LocalPosition: {x: -15.111769, y: 0, z: -3.1974423e-14}
  m_LocalScale: {x: 1, y: 1, z: 1}
  m_Children:
  - {fileID: 7072444061591351688}
  m_Father: {fileID: 7072444061591351778}
  m_RootOrder: 1
  m_LocalEulerAnglesHint: {x: 0, y: 0, z: 0}
--- !u!1 &7072444061591710764
GameObject:
  m_ObjectHideFlags: 0
  m_CorrespondingSourceObject: {fileID: 0}
  m_PrefabInstance: {fileID: 0}
  m_PrefabAsset: {fileID: 0}
  serializedVersion: 6
  m_Component:
  - component: {fileID: 7072444061591351756}
  m_Layer: 0
  m_Name: UpperLeg_Left
  m_TagString: Untagged
  m_Icon: {fileID: 0}
  m_NavMeshLayer: 0
  m_StaticEditorFlags: 0
  m_IsActive: 1
--- !u!4 &7072444061591351756
Transform:
  m_ObjectHideFlags: 0
  m_CorrespondingSourceObject: {fileID: 0}
  m_PrefabInstance: {fileID: 0}
  m_PrefabAsset: {fileID: 0}
  m_GameObject: {fileID: 7072444061591710764}
  m_LocalRotation: {x: -0.030611672, y: -0.6954005, z: 0.7139541, w: 0.07583354}
  m_LocalPosition: {x: 0.08523814, y: 0.40205857, z: -18.864191}
  m_LocalScale: {x: 1, y: 1, z: 1}
  m_Children:
  - {fileID: 7072444061591351690}
  m_Father: {fileID: 7072444061591351702}
  m_RootOrder: 3
  m_LocalEulerAnglesHint: {x: 0, y: 0, z: 0}
--- !u!1 &7072444061591710766
GameObject:
  m_ObjectHideFlags: 0
  m_CorrespondingSourceObject: {fileID: 0}
  m_PrefabInstance: {fileID: 0}
  m_PrefabAsset: {fileID: 0}
  serializedVersion: 6
  m_Component:
  - component: {fileID: 7072444061591351758}
  m_Layer: 0
  m_Name: UpperLeg_Right
  m_TagString: Untagged
  m_Icon: {fileID: 0}
  m_NavMeshLayer: 0
  m_StaticEditorFlags: 0
  m_IsActive: 1
--- !u!4 &7072444061591351758
Transform:
  m_ObjectHideFlags: 0
  m_CorrespondingSourceObject: {fileID: 0}
  m_PrefabInstance: {fileID: 0}
  m_PrefabAsset: {fileID: 0}
  m_GameObject: {fileID: 7072444061591710766}
  m_LocalRotation: {x: 0.03061261, y: 0.6954094, z: 0.7139454, w: 0.07583304}
  m_LocalPosition: {x: 0.084786385, y: 0.40212917, z: 18.8642}
  m_LocalScale: {x: 1, y: 1, z: 1}
  m_Children:
  - {fileID: 7072444061591351692}
  m_Father: {fileID: 7072444061591351702}
  m_RootOrder: 4
  m_LocalEulerAnglesHint: {x: 0, y: 0, z: 0}
--- !u!1 &7072444061591710768
GameObject:
  m_ObjectHideFlags: 0
  m_CorrespondingSourceObject: {fileID: 0}
  m_PrefabInstance: {fileID: 0}
  m_PrefabAsset: {fileID: 0}
  serializedVersion: 6
  m_Component:
  - component: {fileID: 7072444061591351760}
  m_Layer: 0
  m_Name: Spine
  m_TagString: Untagged
  m_Icon: {fileID: 0}
  m_NavMeshLayer: 0
  m_StaticEditorFlags: 0
  m_IsActive: 1
--- !u!4 &7072444061591351760
Transform:
  m_ObjectHideFlags: 0
  m_CorrespondingSourceObject: {fileID: 0}
  m_PrefabInstance: {fileID: 0}
  m_PrefabAsset: {fileID: 0}
  m_GameObject: {fileID: 7072444061591710768}
  m_LocalRotation: {x: 0.99452215, y: -0.104526356, z: -7.7878193e-10, w: 0.0000000074097675}
  m_LocalPosition: {x: -21.090727, y: -8.881784e-15, z: -4.4013775e-16}
  m_LocalScale: {x: 1, y: 1, z: 1}
  m_Children:
  - {fileID: 7072444061591351716}
  m_Father: {fileID: 7072444061591351702}
  m_RootOrder: 2
  m_LocalEulerAnglesHint: {x: 0, y: 0, z: 0}
--- !u!1 &7072444061591710770
GameObject:
  m_ObjectHideFlags: 0
  m_CorrespondingSourceObject: {fileID: 0}
  m_PrefabInstance: {fileID: 0}
  m_PrefabAsset: {fileID: 0}
  serializedVersion: 6
  m_Component:
  - component: {fileID: 7072444061591351762}
  m_Layer: 0
  m_Name: Thumb_Distal_Left
  m_TagString: Untagged
  m_Icon: {fileID: 0}
  m_NavMeshLayer: 0
  m_StaticEditorFlags: 0
  m_IsActive: 1
--- !u!4 &7072444061591351762
Transform:
  m_ObjectHideFlags: 0
  m_CorrespondingSourceObject: {fileID: 0}
  m_PrefabInstance: {fileID: 0}
  m_PrefabAsset: {fileID: 0}
  m_GameObject: {fileID: 7072444061591710770}
  m_LocalRotation: {x: -0.017883137, y: -0.03974522, z: -0.025908269, w: 0.99871385}
  m_LocalPosition: {x: -8.816608, y: 0, z: 1.4210855e-14}
  m_LocalScale: {x: 1, y: 1, z: 1}
  m_Children: []
  m_Father: {fileID: 7072444061591351766}
  m_RootOrder: 0
  m_LocalEulerAnglesHint: {x: 0, y: 0, z: 0}
--- !u!1 &7072444061591710772
GameObject:
  m_ObjectHideFlags: 0
  m_CorrespondingSourceObject: {fileID: 0}
  m_PrefabInstance: {fileID: 0}
  m_PrefabAsset: {fileID: 0}
  serializedVersion: 6
  m_Component:
  - component: {fileID: 7072444061591351764}
  m_Layer: 0
  m_Name: Thumb_Distal_Right
  m_TagString: Untagged
  m_Icon: {fileID: 0}
  m_NavMeshLayer: 0
  m_StaticEditorFlags: 0
  m_IsActive: 1
--- !u!4 &7072444061591351764
Transform:
  m_ObjectHideFlags: 0
  m_CorrespondingSourceObject: {fileID: 0}
  m_PrefabInstance: {fileID: 0}
  m_PrefabAsset: {fileID: 0}
  m_GameObject: {fileID: 7072444061591710772}
  m_LocalRotation: {x: 0.0017341404, y: 0.008320127, z: -0.005799853, w: 0.9999471}
  m_LocalPosition: {x: -8.816269, y: 0, z: -1.4210855e-14}
  m_LocalScale: {x: 1, y: 1, z: 1}
  m_Children: []
  m_Father: {fileID: 7072444061591351768}
  m_RootOrder: 0
  m_LocalEulerAnglesHint: {x: 0, y: 0, z: 0}
--- !u!1 &7072444061591710774
GameObject:
  m_ObjectHideFlags: 0
  m_CorrespondingSourceObject: {fileID: 0}
  m_PrefabInstance: {fileID: 0}
  m_PrefabAsset: {fileID: 0}
  serializedVersion: 6
  m_Component:
  - component: {fileID: 7072444061591351766}
  m_Layer: 0
  m_Name: Thumb_Intermediate_Left
  m_TagString: Untagged
  m_Icon: {fileID: 0}
  m_NavMeshLayer: 0
  m_StaticEditorFlags: 0
  m_IsActive: 1
--- !u!4 &7072444061591351766
Transform:
  m_ObjectHideFlags: 0
  m_CorrespondingSourceObject: {fileID: 0}
  m_PrefabInstance: {fileID: 0}
  m_PrefabAsset: {fileID: 0}
  m_GameObject: {fileID: 7072444061591710774}
  m_LocalRotation: {x: -0.04900198, y: -0.13549508, z: 0.10049181, w: 0.98444974}
  m_LocalPosition: {x: -9.835772, y: -1.1368684e-13, z: -2.842171e-14}
  m_LocalScale: {x: 1, y: 1, z: 1}
  m_Children:
  - {fileID: 7072444061591351762}
  m_Father: {fileID: 7072444061591351770}
  m_RootOrder: 0
  m_LocalEulerAnglesHint: {x: 0, y: 0, z: 0}
--- !u!1 &7072444061591710776
GameObject:
  m_ObjectHideFlags: 0
  m_CorrespondingSourceObject: {fileID: 0}
  m_PrefabInstance: {fileID: 0}
  m_PrefabAsset: {fileID: 0}
  serializedVersion: 6
  m_Component:
  - component: {fileID: 7072444061591351768}
  m_Layer: 0
  m_Name: Thumb_Intermediate_Right
  m_TagString: Untagged
  m_Icon: {fileID: 0}
  m_NavMeshLayer: 0
  m_StaticEditorFlags: 0
  m_IsActive: 1
--- !u!4 &7072444061591351768
Transform:
  m_ObjectHideFlags: 0
  m_CorrespondingSourceObject: {fileID: 0}
  m_PrefabInstance: {fileID: 0}
  m_PrefabAsset: {fileID: 0}
  m_GameObject: {fileID: 7072444061591710776}
  m_LocalRotation: {x: 0.048999686, y: 0.1354733, z: 0.1004816, w: 0.9844539}
  m_LocalPosition: {x: -9.836, y: -5.684342e-14, z: -5.684342e-14}
  m_LocalScale: {x: 1, y: 1, z: 1}
  m_Children:
  - {fileID: 7072444061591351764}
  m_Father: {fileID: 7072444061591351772}
  m_RootOrder: 0
  m_LocalEulerAnglesHint: {x: 0, y: 0, z: 0}
--- !u!1 &7072444061591710778
GameObject:
  m_ObjectHideFlags: 0
  m_CorrespondingSourceObject: {fileID: 0}
  m_PrefabInstance: {fileID: 0}
  m_PrefabAsset: {fileID: 0}
  serializedVersion: 6
  m_Component:
  - component: {fileID: 7072444061591351770}
  m_Layer: 0
  m_Name: Thumb_Proximal_Left
  m_TagString: Untagged
  m_Icon: {fileID: 0}
  m_NavMeshLayer: 0
  m_StaticEditorFlags: 0
  m_IsActive: 1
--- !u!4 &7072444061591351770
Transform:
  m_ObjectHideFlags: 0
  m_CorrespondingSourceObject: {fileID: 0}
  m_PrefabInstance: {fileID: 0}
  m_PrefabAsset: {fileID: 0}
  m_GameObject: {fileID: 7072444061591710778}
  m_LocalRotation: {x: 0.057522308, y: 0.49499637, z: 0.112048574, w: 0.8597179}
  m_LocalPosition: {x: -0.2922163, y: -0.5636321, z: 12.295864}
  m_LocalScale: {x: 1, y: 1, z: 1}
  m_Children:
  - {fileID: 7072444061591351766}
  m_Father: {fileID: 7072444061591351722}
  m_RootOrder: 2
  m_LocalEulerAnglesHint: {x: 0, y: 0, z: 0}
--- !u!1 &7072444061591710780
GameObject:
  m_ObjectHideFlags: 0
  m_CorrespondingSourceObject: {fileID: 0}
  m_PrefabInstance: {fileID: 0}
  m_PrefabAsset: {fileID: 0}
  serializedVersion: 6
  m_Component:
  - component: {fileID: 7072444061591351772}
  m_Layer: 0
  m_Name: Thumb_Proximal_Right
  m_TagString: Untagged
  m_Icon: {fileID: 0}
  m_NavMeshLayer: 0
  m_StaticEditorFlags: 0
  m_IsActive: 1
--- !u!4 &7072444061591351772
Transform:
  m_ObjectHideFlags: 0
  m_CorrespondingSourceObject: {fileID: 0}
  m_PrefabInstance: {fileID: 0}
  m_PrefabAsset: {fileID: 0}
  m_GameObject: {fileID: 7072444061591710780}
  m_LocalRotation: {x: -0.057529792, y: -0.49499094, z: 0.11207554, w: 0.859717}
  m_LocalPosition: {x: -0.29218963, y: -0.56312394, z: -12.29586}
  m_LocalScale: {x: 1, y: 1, z: 1}
  m_Children:
  - {fileID: 7072444061591351768}
  m_Father: {fileID: 7072444061591351724}
  m_RootOrder: 2
  m_LocalEulerAnglesHint: {x: 0, y: 0, z: 0}
--- !u!1 &7072444061591710782
GameObject:
  m_ObjectHideFlags: 0
  m_CorrespondingSourceObject: {fileID: 0}
  m_PrefabInstance: {fileID: 0}
  m_PrefabAsset: {fileID: 0}
  serializedVersion: 6
  m_Component:
  - component: {fileID: 7072444061591351774}
  m_Layer: 0
  m_Name: Toe_Left
  m_TagString: Untagged
  m_Icon: {fileID: 0}
  m_NavMeshLayer: 0
  m_StaticEditorFlags: 0
  m_IsActive: 1
--- !u!4 &7072444061591351774
Transform:
  m_ObjectHideFlags: 0
  m_CorrespondingSourceObject: {fileID: 0}
  m_PrefabInstance: {fileID: 0}
  m_PrefabAsset: {fileID: 0}
  m_GameObject: {fileID: 7072444061591710782}
  m_LocalRotation: {x: 0.0013659683, y: 0.0051824837, z: -0.24785845, w: 0.9687815}
  m_LocalPosition: {x: -13.771131, y: 1.9539925e-14, z: -1.0658141e-14}
  m_LocalScale: {x: 1, y: 1, z: 1}
  m_Children:
  - {fileID: 7072444061591351746}
  m_Father: {fileID: 7072444061591351718}
  m_RootOrder: 0
  m_LocalEulerAnglesHint: {x: 0, y: 0, z: 0}
--- !u!1 &7072444061591711104
GameObject:
  m_ObjectHideFlags: 0
  m_CorrespondingSourceObject: {fileID: 0}
  m_PrefabInstance: {fileID: 0}
  m_PrefabAsset: {fileID: 0}
  serializedVersion: 6
  m_Component:
  - component: {fileID: 7072444061591351712}
  - component: {fileID: 7072444061578043540}
  m_Layer: 0
  m_Name: Backpack1
  m_TagString: Untagged
  m_Icon: {fileID: 0}
  m_NavMeshLayer: 0
  m_StaticEditorFlags: 0
  m_IsActive: 1
--- !u!4 &7072444061591351712
Transform:
  m_ObjectHideFlags: 0
  m_CorrespondingSourceObject: {fileID: 0}
  m_PrefabInstance: {fileID: 0}
  m_PrefabAsset: {fileID: 0}
  m_GameObject: {fileID: 7072444061591711104}
  m_LocalRotation: {x: 0, y: -0, z: -0, w: 1}
  m_LocalPosition: {x: -0, y: -138.49533, z: 34.48629}
  m_LocalScale: {x: 0.01, y: 0.01, z: 0.01}
  m_Children: []
  m_Father: {fileID: 7072444061591351794}
  m_RootOrder: 2
  m_LocalEulerAnglesHint: {x: 0, y: 0, z: 0}
--- !u!137 &7072444061578043540
SkinnedMeshRenderer:
  m_ObjectHideFlags: 0
  m_CorrespondingSourceObject: {fileID: 0}
  m_PrefabInstance: {fileID: 0}
  m_PrefabAsset: {fileID: 0}
  m_GameObject: {fileID: 7072444061591711104}
  m_Enabled: 1
  m_CastShadows: 1
  m_ReceiveShadows: 1
  m_DynamicOccludee: 1
  m_MotionVectors: 1
  m_LightProbeUsage: 1
  m_ReflectionProbeUsage: 1
  m_RayTracingMode: 3
  m_RayTraceProcedural: 0
  m_RenderingLayerMask: 1
  m_RendererPriority: 0
  m_Materials:
  - {fileID: 2100000, guid: 78660c09ff101ea4cb77de408a9527da, type: 2}
  m_StaticBatchInfo:
    firstSubMesh: 0
    subMeshCount: 0
  m_StaticBatchRoot: {fileID: 0}
  m_ProbeAnchor: {fileID: 0}
  m_LightProbeVolumeOverride: {fileID: 0}
  m_ScaleInLightmap: 1
  m_ReceiveGI: 1
  m_PreserveUVs: 0
  m_IgnoreNormalsForChartDetection: 0
  m_ImportantGI: 0
  m_StitchLightmapSeams: 0
  m_SelectedEditorRenderState: 3
  m_MinimumChartSize: 4
  m_AutoUVMaxDistance: 0.5
  m_AutoUVMaxAngle: 89
  m_LightmapParameters: {fileID: 0}
  m_SortingLayerID: 0
  m_SortingLayer: 0
  m_SortingOrder: 0
  serializedVersion: 2
  m_Quality: 0
  m_UpdateWhenOffscreen: 0
  m_SkinnedMotionVectors: 1
  m_Mesh: {fileID: 4300004, guid: 860793eb3324391468f1c120a75ec049, type: 3}
  m_Bones:
  - {fileID: 7072444061591351702}
  - {fileID: 7072444061591351760}
  - {fileID: 7072444061591351716}
  - {fileID: 7072444061591351792}
  - {fileID: 7072444061591351726}
  - {fileID: 7072444061591351698}
  - {fileID: 7072444061591351700}
  - {fileID: 7072444061591351776}
  - {fileID: 7072444061591351752}
  - {fileID: 7072444061591351686}
  - {fileID: 7072444061591351722}
  - {fileID: 7072444061591351804}
  - {fileID: 7072444061591351800}
  - {fileID: 7072444061591351796}
  - {fileID: 7072444061591351680}
  - {fileID: 7072444061591351708}
  - {fileID: 7072444061591351704}
  - {fileID: 7072444061591351770}
  - {fileID: 7072444061591351766}
  - {fileID: 7072444061591351762}
  - {fileID: 7072444061591351788}
  - {fileID: 7072444061591351784}
  - {fileID: 7072444061591351780}
  - {fileID: 7072444061591351778}
  - {fileID: 7072444061591351754}
  - {fileID: 7072444061591351688}
  - {fileID: 7072444061591351724}
  - {fileID: 7072444061591351806}
  - {fileID: 7072444061591351802}
  - {fileID: 7072444061591351798}
  - {fileID: 7072444061591351682}
  - {fileID: 7072444061591351710}
  - {fileID: 7072444061591351706}
  - {fileID: 7072444061591351772}
  - {fileID: 7072444061591351768}
  - {fileID: 7072444061591351764}
  - {fileID: 7072444061591351790}
  - {fileID: 7072444061591351786}
  - {fileID: 7072444061591351782}
  - {fileID: 7072444061591351742}
  - {fileID: 7072444061591351730}
  - {fileID: 7072444061591351734}
  - {fileID: 7072444061591351732}
  - {fileID: 7072444061591351756}
  - {fileID: 7072444061591351690}
  - {fileID: 7072444061591351718}
  - {fileID: 7072444061591351774}
  - {fileID: 7072444061591351746}
  - {fileID: 7072444061591351758}
  - {fileID: 7072444061591351692}
  - {fileID: 7072444061591351720}
  - {fileID: 7072444061591351744}
  - {fileID: 7072444061591351748}
  - {fileID: 7072444061591351738}
  - {fileID: 7072444061591351694}
  - {fileID: 7072444061591351750}
  - {fileID: 7072444061591351736}
  m_BlendShapeWeights: []
  m_RootBone: {fileID: 7072444061591351702}
  m_AABB:
    m_Center: {x: -28.89946, y: 44.769905, z: -1.5718498}
    m_Extent: {x: 47.82257, y: 32.29384, z: 42.822285}
  m_DirtyAABB: 0
--- !u!1 &7072444061591711106
GameObject:
  m_ObjectHideFlags: 0
  m_CorrespondingSourceObject: {fileID: 0}
  m_PrefabInstance: {fileID: 0}
  m_PrefabAsset: {fileID: 0}
  serializedVersion: 6
  m_Component:
  - component: {fileID: 7072444061591351714}
  - component: {fileID: 7072444061578043542}
  m_Layer: 0
  m_Name: Body1
  m_TagString: Untagged
  m_Icon: {fileID: 0}
  m_NavMeshLayer: 0
  m_StaticEditorFlags: 0
  m_IsActive: 1
--- !u!4 &7072444061591351714
Transform:
  m_ObjectHideFlags: 0
  m_CorrespondingSourceObject: {fileID: 0}
  m_PrefabInstance: {fileID: 0}
  m_PrefabAsset: {fileID: 0}
  m_GameObject: {fileID: 7072444061591711106}
  m_LocalRotation: {x: 0, y: -0, z: -0, w: 1}
  m_LocalPosition: {x: -0.0000018693923, y: -129.49721, z: -6.0212374}
  m_LocalScale: {x: 0.01, y: 0.01, z: 0.01}
  m_Children: []
  m_Father: {fileID: 7072444061591351794}
  m_RootOrder: 3
  m_LocalEulerAnglesHint: {x: 0, y: 0, z: 0}
--- !u!137 &7072444061578043542
SkinnedMeshRenderer:
  m_ObjectHideFlags: 0
  m_CorrespondingSourceObject: {fileID: 0}
  m_PrefabInstance: {fileID: 0}
  m_PrefabAsset: {fileID: 0}
  m_GameObject: {fileID: 7072444061591711106}
  m_Enabled: 1
  m_CastShadows: 1
  m_ReceiveShadows: 1
  m_DynamicOccludee: 1
  m_MotionVectors: 1
  m_LightProbeUsage: 1
  m_ReflectionProbeUsage: 1
  m_RayTracingMode: 3
  m_RayTraceProcedural: 0
  m_RenderingLayerMask: 1
  m_RendererPriority: 0
  m_Materials:
  - {fileID: 2100000, guid: 78660c09ff101ea4cb77de408a9527da, type: 2}
  m_StaticBatchInfo:
    firstSubMesh: 0
    subMeshCount: 0
  m_StaticBatchRoot: {fileID: 0}
  m_ProbeAnchor: {fileID: 0}
  m_LightProbeVolumeOverride: {fileID: 0}
  m_ScaleInLightmap: 1
  m_ReceiveGI: 1
  m_PreserveUVs: 0
  m_IgnoreNormalsForChartDetection: 0
  m_ImportantGI: 0
  m_StitchLightmapSeams: 0
  m_SelectedEditorRenderState: 3
  m_MinimumChartSize: 4
  m_AutoUVMaxDistance: 0.5
  m_AutoUVMaxAngle: 89
  m_LightmapParameters: {fileID: 0}
  m_SortingLayerID: 0
  m_SortingLayer: 0
  m_SortingOrder: 0
  serializedVersion: 2
  m_Quality: 0
  m_UpdateWhenOffscreen: 0
  m_SkinnedMotionVectors: 1
  m_Mesh: {fileID: 4300002, guid: 860793eb3324391468f1c120a75ec049, type: 3}
  m_Bones:
  - {fileID: 7072444061591351702}
  - {fileID: 7072444061591351760}
  - {fileID: 7072444061591351716}
  - {fileID: 7072444061591351792}
  - {fileID: 7072444061591351726}
  - {fileID: 7072444061591351698}
  - {fileID: 7072444061591351700}
  - {fileID: 7072444061591351776}
  - {fileID: 7072444061591351752}
  - {fileID: 7072444061591351686}
  - {fileID: 7072444061591351722}
  - {fileID: 7072444061591351804}
  - {fileID: 7072444061591351800}
  - {fileID: 7072444061591351796}
  - {fileID: 7072444061591351680}
  - {fileID: 7072444061591351708}
  - {fileID: 7072444061591351704}
  - {fileID: 7072444061591351770}
  - {fileID: 7072444061591351766}
  - {fileID: 7072444061591351762}
  - {fileID: 7072444061591351788}
  - {fileID: 7072444061591351784}
  - {fileID: 7072444061591351780}
  - {fileID: 7072444061591351778}
  - {fileID: 7072444061591351754}
  - {fileID: 7072444061591351688}
  - {fileID: 7072444061591351724}
  - {fileID: 7072444061591351806}
  - {fileID: 7072444061591351802}
  - {fileID: 7072444061591351798}
  - {fileID: 7072444061591351682}
  - {fileID: 7072444061591351710}
  - {fileID: 7072444061591351706}
  - {fileID: 7072444061591351772}
  - {fileID: 7072444061591351768}
  - {fileID: 7072444061591351764}
  - {fileID: 7072444061591351790}
  - {fileID: 7072444061591351786}
  - {fileID: 7072444061591351782}
  - {fileID: 7072444061591351742}
  - {fileID: 7072444061591351730}
  - {fileID: 7072444061591351734}
  - {fileID: 7072444061591351732}
  - {fileID: 7072444061591351756}
  - {fileID: 7072444061591351690}
  - {fileID: 7072444061591351718}
  - {fileID: 7072444061591351774}
  - {fileID: 7072444061591351746}
  - {fileID: 7072444061591351758}
  - {fileID: 7072444061591351692}
  - {fileID: 7072444061591351720}
  - {fileID: 7072444061591351744}
  - {fileID: 7072444061591351748}
  - {fileID: 7072444061591351738}
  - {fileID: 7072444061591351694}
  - {fileID: 7072444061591351750}
  - {fileID: 7072444061591351736}
  m_BlendShapeWeights: []
  m_RootBone: {fileID: 7072444061591351702}
  m_AABB:
    m_Center: {x: -31.982391, y: 2.5145874, z: 0.0000019073486}
    m_Extent: {x: 51.12609, y: 46.604404, z: 27.749142}
  m_DirtyAABB: 0
--- !u!1 &7072444061591711108
GameObject:
  m_ObjectHideFlags: 0
  m_CorrespondingSourceObject: {fileID: 0}
  m_PrefabInstance: {fileID: 0}
  m_PrefabAsset: {fileID: 0}
  serializedVersion: 6
  m_Component:
  - component: {fileID: 7072444061591351716}
  m_Layer: 0
  m_Name: Chest
  m_TagString: Untagged
  m_Icon: {fileID: 0}
  m_NavMeshLayer: 0
  m_StaticEditorFlags: 0
  m_IsActive: 1
--- !u!4 &7072444061591351716
Transform:
  m_ObjectHideFlags: 0
  m_CorrespondingSourceObject: {fileID: 0}
  m_PrefabInstance: {fileID: 0}
  m_PrefabAsset: {fileID: 0}
  m_GameObject: {fileID: 7072444061591711108}
  m_LocalRotation: {x: 3.1378165e-33, y: -5.551116e-17, z: 0.18862787, w: 0.9820487}
  m_LocalPosition: {x: -24.042006, y: -1.0658141e-14, z: 1.9451509e-14}
  m_LocalScale: {x: 1, y: 1, z: 1}
  m_Children:
  - {fileID: 7072444061591351742}
  - {fileID: 7072444061591351792}
  - {fileID: 7072444061591351776}
  - {fileID: 7072444061591351778}
  m_Father: {fileID: 7072444061591351760}
  m_RootOrder: 0
  m_LocalEulerAnglesHint: {x: 0, y: 0, z: 0}
--- !u!1 &7072444061591711110
GameObject:
  m_ObjectHideFlags: 0
  m_CorrespondingSourceObject: {fileID: 0}
  m_PrefabInstance: {fileID: 0}
  m_PrefabAsset: {fileID: 0}
  serializedVersion: 6
  m_Component:
  - component: {fileID: 7072444061591351718}
  m_Layer: 0
  m_Name: Foot_Left
  m_TagString: Untagged
  m_Icon: {fileID: 0}
  m_NavMeshLayer: 0
  m_StaticEditorFlags: 0
  m_IsActive: 1
--- !u!4 &7072444061591351718
Transform:
  m_ObjectHideFlags: 0
  m_CorrespondingSourceObject: {fileID: 0}
  m_PrefabInstance: {fileID: 0}
  m_PrefabAsset: {fileID: 0}
  m_GameObject: {fileID: 7072444061591711110}
  m_LocalRotation: {x: 0.8193084, y: 0.56578285, z: -0.02233458, w: 0.09013736}
  m_LocalPosition: {x: -62.734695, y: 2.842171e-14, z: -1.7763568e-14}
  m_LocalScale: {x: 1, y: 1, z: 1}
  m_Children:
  - {fileID: 7072444061591351774}
  m_Father: {fileID: 7072444061591351690}
  m_RootOrder: 0
  m_LocalEulerAnglesHint: {x: 0, y: 0, z: 0}
--- !u!1 &7072444061591711112
GameObject:
  m_ObjectHideFlags: 0
  m_CorrespondingSourceObject: {fileID: 0}
  m_PrefabInstance: {fileID: 0}
  m_PrefabAsset: {fileID: 0}
  serializedVersion: 6
  m_Component:
  - component: {fileID: 7072444061591351720}
  m_Layer: 0
  m_Name: Foot_Right
  m_TagString: Untagged
  m_Icon: {fileID: 0}
  m_NavMeshLayer: 0
  m_StaticEditorFlags: 0
  m_IsActive: 1
--- !u!4 &7072444061591351720
Transform:
  m_ObjectHideFlags: 0
  m_CorrespondingSourceObject: {fileID: 0}
  m_PrefabInstance: {fileID: 0}
  m_PrefabAsset: {fileID: 0}
  m_GameObject: {fileID: 7072444061591711112}
  m_LocalRotation: {x: 0.81892335, y: 0.5656828, z: 0.024710972, w: -0.09357782}
  m_LocalPosition: {x: -62.73464, y: -9.769963e-15, z: 2.4868996e-14}
  m_LocalScale: {x: 1, y: 1, z: 1}
  m_Children:
  - {fileID: 7072444061591351744}
  m_Father: {fileID: 7072444061591351692}
  m_RootOrder: 0
  m_LocalEulerAnglesHint: {x: 0, y: 0, z: 0}
--- !u!1 &7072444061591711114
GameObject:
  m_ObjectHideFlags: 0
  m_CorrespondingSourceObject: {fileID: 0}
  m_PrefabInstance: {fileID: 0}
  m_PrefabAsset: {fileID: 0}
  serializedVersion: 6
  m_Component:
  - component: {fileID: 7072444061591351722}
  m_Layer: 0
  m_Name: Hand_Left
  m_TagString: Untagged
  m_Icon: {fileID: 0}
  m_NavMeshLayer: 0
  m_StaticEditorFlags: 0
  m_IsActive: 1
--- !u!4 &7072444061591351722
Transform:
  m_ObjectHideFlags: 0
  m_CorrespondingSourceObject: {fileID: 0}
  m_PrefabInstance: {fileID: 0}
  m_PrefabAsset: {fileID: 0}
  m_GameObject: {fileID: 7072444061591711114}
  m_LocalRotation: {x: 0.0005932963, y: -0.08528753, z: -0.006930911, w: 0.9963321}
  m_LocalPosition: {x: -37.441498, y: 8.526513e-14, z: 2.7533531e-14}
  m_LocalScale: {x: 1, y: 1, z: 1}
  m_Children:
  - {fileID: 7072444061591351680}
  - {fileID: 7072444061591351804}
  - {fileID: 7072444061591351770}
  m_Father: {fileID: 7072444061591351686}
  m_RootOrder: 0
  m_LocalEulerAnglesHint: {x: 0, y: 0, z: 0}
--- !u!1 &7072444061591711116
GameObject:
  m_ObjectHideFlags: 0
  m_CorrespondingSourceObject: {fileID: 0}
  m_PrefabInstance: {fileID: 0}
  m_PrefabAsset: {fileID: 0}
  serializedVersion: 6
  m_Component:
  - component: {fileID: 7072444061591351724}
  m_Layer: 0
  m_Name: Hand_Right
  m_TagString: Untagged
  m_Icon: {fileID: 0}
  m_NavMeshLayer: 0
  m_StaticEditorFlags: 0
  m_IsActive: 1
--- !u!4 &7072444061591351724
Transform:
  m_ObjectHideFlags: 0
  m_CorrespondingSourceObject: {fileID: 0}
  m_PrefabInstance: {fileID: 0}
  m_PrefabAsset: {fileID: 0}
  m_GameObject: {fileID: 7072444061591711116}
  m_LocalRotation: {x: -0.0005926622, y: 0.085287675, z: -0.0069382307, w: 0.99633205}
  m_LocalPosition: {x: -37.441414, y: 1.7053026e-13, z: -5.3290705e-15}
  m_LocalScale: {x: 1, y: 1, z: 1}
  m_Children:
  - {fileID: 7072444061591351682}
  - {fileID: 7072444061591351806}
  - {fileID: 7072444061591351772}
  m_Father: {fileID: 7072444061591351688}
  m_RootOrder: 0
  m_LocalEulerAnglesHint: {x: 0, y: 0, z: 0}
--- !u!1 &7072444061591711118
GameObject:
  m_ObjectHideFlags: 0
  m_CorrespondingSourceObject: {fileID: 0}
  m_PrefabInstance: {fileID: 0}
  m_PrefabAsset: {fileID: 0}
  serializedVersion: 6
  m_Component:
  - component: {fileID: 7072444061591351726}
  m_Layer: 0
  m_Name: Head
  m_TagString: Untagged
  m_Icon: {fileID: 0}
  m_NavMeshLayer: 0
  m_StaticEditorFlags: 0
  m_IsActive: 1
--- !u!4 &7072444061591351726
Transform:
  m_ObjectHideFlags: 0
  m_CorrespondingSourceObject: {fileID: 0}
  m_PrefabInstance: {fileID: 0}
  m_PrefabAsset: {fileID: 0}
  m_GameObject: {fileID: 7072444061591711118}
  m_LocalRotation: {x: 0.071218304, y: -0.028954746, z: -0.059960153, w: 0.99523586}
  m_LocalPosition: {x: -13.255574, y: -1.4210855e-14, z: 7.364747e-15}
  m_LocalScale: {x: 1, y: 1, z: 1}
  m_Children:
  - {fileID: 7072444061591351698}
  - {fileID: 7072444061591351700}
  m_Father: {fileID: 7072444061591351792}
  m_RootOrder: 0
  m_LocalEulerAnglesHint: {x: 0, y: 0, z: 0}
--- !u!1 &7072444061591711120
GameObject:
  m_ObjectHideFlags: 0
  m_CorrespondingSourceObject: {fileID: 0}
  m_PrefabInstance: {fileID: 0}
  m_PrefabAsset: {fileID: 0}
  serializedVersion: 6
  m_Component:
  - component: {fileID: 7072444061591351728}
  - component: {fileID: 7072444061578043536}
  m_Layer: 0
  m_Name: Arm1
  m_TagString: Untagged
  m_Icon: {fileID: 0}
  m_NavMeshLayer: 0
  m_StaticEditorFlags: 0
  m_IsActive: 1
--- !u!4 &7072444061591351728
Transform:
  m_ObjectHideFlags: 0
  m_CorrespondingSourceObject: {fileID: 0}
  m_PrefabInstance: {fileID: 0}
  m_PrefabAsset: {fileID: 0}
  m_GameObject: {fileID: 7072444061591711120}
  m_LocalRotation: {x: 0, y: -0, z: -0, w: 1}
  m_LocalPosition: {x: -0, y: -163.22968, z: -0.3527179}
  m_LocalScale: {x: 0.01, y: 0.01, z: 0.01}
  m_Children: []
  m_Father: {fileID: 7072444061591351794}
  m_RootOrder: 0
  m_LocalEulerAnglesHint: {x: 0, y: 0, z: 0}
--- !u!137 &7072444061578043536
SkinnedMeshRenderer:
  m_ObjectHideFlags: 0
  m_CorrespondingSourceObject: {fileID: 0}
  m_PrefabInstance: {fileID: 0}
  m_PrefabAsset: {fileID: 0}
  m_GameObject: {fileID: 7072444061591711120}
  m_Enabled: 1
  m_CastShadows: 1
  m_ReceiveShadows: 1
  m_DynamicOccludee: 1
  m_MotionVectors: 1
  m_LightProbeUsage: 1
  m_ReflectionProbeUsage: 1
  m_RayTracingMode: 3
  m_RayTraceProcedural: 0
  m_RenderingLayerMask: 1
  m_RendererPriority: 0
  m_Materials:
  - {fileID: 2100000, guid: 78660c09ff101ea4cb77de408a9527da, type: 2}
  m_StaticBatchInfo:
    firstSubMesh: 0
    subMeshCount: 0
  m_StaticBatchRoot: {fileID: 0}
  m_ProbeAnchor: {fileID: 0}
  m_LightProbeVolumeOverride: {fileID: 0}
  m_ScaleInLightmap: 1
  m_ReceiveGI: 1
  m_PreserveUVs: 0
  m_IgnoreNormalsForChartDetection: 0
  m_ImportantGI: 0
  m_StitchLightmapSeams: 0
  m_SelectedEditorRenderState: 3
  m_MinimumChartSize: 4
  m_AutoUVMaxDistance: 0.5
  m_AutoUVMaxAngle: 89
  m_LightmapParameters: {fileID: 0}
  m_SortingLayerID: 0
  m_SortingLayer: 0
  m_SortingOrder: 0
  serializedVersion: 2
  m_Quality: 0
  m_UpdateWhenOffscreen: 0
  m_SkinnedMotionVectors: 1
  m_Mesh: {fileID: 4300006, guid: 860793eb3324391468f1c120a75ec049, type: 3}
  m_Bones:
  - {fileID: 7072444061591351702}
  - {fileID: 7072444061591351760}
  - {fileID: 7072444061591351716}
  - {fileID: 7072444061591351792}
  - {fileID: 7072444061591351726}
  - {fileID: 7072444061591351698}
  - {fileID: 7072444061591351700}
  - {fileID: 7072444061591351776}
  - {fileID: 7072444061591351752}
  - {fileID: 7072444061591351686}
  - {fileID: 7072444061591351722}
  - {fileID: 7072444061591351804}
  - {fileID: 7072444061591351800}
  - {fileID: 7072444061591351796}
  - {fileID: 7072444061591351680}
  - {fileID: 7072444061591351708}
  - {fileID: 7072444061591351704}
  - {fileID: 7072444061591351770}
  - {fileID: 7072444061591351766}
  - {fileID: 7072444061591351762}
  - {fileID: 7072444061591351788}
  - {fileID: 7072444061591351784}
  - {fileID: 7072444061591351780}
  - {fileID: 7072444061591351778}
  - {fileID: 7072444061591351754}
  - {fileID: 7072444061591351688}
  - {fileID: 7072444061591351724}
  - {fileID: 7072444061591351806}
  - {fileID: 7072444061591351802}
  - {fileID: 7072444061591351798}
  - {fileID: 7072444061591351682}
  - {fileID: 7072444061591351710}
  - {fileID: 7072444061591351706}
  - {fileID: 7072444061591351772}
  - {fileID: 7072444061591351768}
  - {fileID: 7072444061591351764}
  - {fileID: 7072444061591351790}
  - {fileID: 7072444061591351786}
  - {fileID: 7072444061591351782}
  - {fileID: 7072444061591351742}
  - {fileID: 7072444061591351730}
  - {fileID: 7072444061591351734}
  - {fileID: 7072444061591351732}
  - {fileID: 7072444061591351756}
  - {fileID: 7072444061591351690}
  - {fileID: 7072444061591351718}
  - {fileID: 7072444061591351774}
  - {fileID: 7072444061591351746}
  - {fileID: 7072444061591351758}
  - {fileID: 7072444061591351692}
  - {fileID: 7072444061591351720}
  - {fileID: 7072444061591351744}
  - {fileID: 7072444061591351748}
  - {fileID: 7072444061591351738}
  - {fileID: 7072444061591351694}
  - {fileID: 7072444061591351750}
  - {fileID: 7072444061591351736}
  m_BlendShapeWeights: []
  m_RootBone: {fileID: 7072444061591351702}
  m_AABB:
    m_Center: {x: -58.594677, y: 13.632675, z: 0.00010681152}
    m_Extent: {x: 29.436275, y: 28.906914, z: 140.37485}
  m_DirtyAABB: 0
--- !u!1 &7072444061591711122
GameObject:
  m_ObjectHideFlags: 0
  m_CorrespondingSourceObject: {fileID: 0}
  m_PrefabInstance: {fileID: 0}
  m_PrefabAsset: {fileID: 0}
  serializedVersion: 6
  m_Component:
  - component: {fileID: 7072444061591351730}
  m_Layer: 0
  m_Name: ArmPlacement_Left
  m_TagString: Untagged
  m_Icon: {fileID: 0}
  m_NavMeshLayer: 0
  m_StaticEditorFlags: 0
  m_IsActive: 1
--- !u!4 &7072444061591351730
Transform:
  m_ObjectHideFlags: 0
  m_CorrespondingSourceObject: {fileID: 0}
  m_PrefabInstance: {fileID: 0}
  m_PrefabAsset: {fileID: 0}
  m_GameObject: {fileID: 7072444061591711122}
  m_LocalRotation: {x: -0.002378591, y: 0.08787313, z: 0.02695381, w: 0.99576414}
  m_LocalPosition: {x: -44.450283, y: 2.842171e-14, z: -2.1316282e-14}
  m_LocalScale: {x: 1, y: 1, z: 1}
  m_Children: []
  m_Father: {fileID: 7072444061591351742}
  m_RootOrder: 0
  m_LocalEulerAnglesHint: {x: 0, y: 0, z: 0}
--- !u!1 &7072444061591711124
GameObject:
  m_ObjectHideFlags: 0
  m_CorrespondingSourceObject: {fileID: 0}
  m_PrefabInstance: {fileID: 0}
  m_PrefabAsset: {fileID: 0}
  serializedVersion: 6
  m_Component:
  - component: {fileID: 7072444061591351732}
  m_Layer: 0
  m_Name: ArmPlacement_Right
  m_TagString: Untagged
  m_Icon: {fileID: 0}
  m_NavMeshLayer: 0
  m_StaticEditorFlags: 0
  m_IsActive: 1
--- !u!4 &7072444061591351732
Transform:
  m_ObjectHideFlags: 0
  m_CorrespondingSourceObject: {fileID: 0}
  m_PrefabInstance: {fileID: 0}
  m_PrefabAsset: {fileID: 0}
  m_GameObject: {fileID: 7072444061591711124}
  m_LocalRotation: {x: -0.02695381, y: 0.99576414, z: -0.0023785909, w: -0.08787313}
  m_LocalPosition: {x: 41.471436, y: 4.6548405, z: -15.306103}
  m_LocalScale: {x: 1, y: 1, z: 1}
  m_Children: []
  m_Father: {fileID: 7072444061591351742}
  m_RootOrder: 1
  m_LocalEulerAnglesHint: {x: 0, y: 0, z: 0}
--- !u!1 &7072444061591711126
GameObject:
  m_ObjectHideFlags: 0
  m_CorrespondingSourceObject: {fileID: 0}
  m_PrefabInstance: {fileID: 0}
  m_PrefabAsset: {fileID: 0}
  serializedVersion: 6
  m_Component:
  - component: {fileID: 7072444061591351734}
  m_Layer: 0
  m_Name: ArmPlacement_Upper
  m_TagString: Untagged
  m_Icon: {fileID: 0}
  m_NavMeshLayer: 0
  m_StaticEditorFlags: 0
  m_IsActive: 1
--- !u!4 &7072444061591351734
Transform:
  m_ObjectHideFlags: 0
  m_CorrespondingSourceObject: {fileID: 0}
  m_PrefabInstance: {fileID: 0}
  m_PrefabAsset: {fileID: 0}
  m_GameObject: {fileID: 7072444061591711126}
  m_LocalRotation: {x: -0.002378591, y: 0.08787313, z: 0.02695381, w: 0.99576414}
  m_LocalPosition: {x: -0.56803536, y: 46.34834, z: 10.906936}
  m_LocalScale: {x: 1, y: 1, z: 1}
  m_Children: []
  m_Father: {fileID: 7072444061591351742}
  m_RootOrder: 2
  m_LocalEulerAnglesHint: {x: 0, y: 0, z: 0}
--- !u!1 &7072444061591711128
GameObject:
  m_ObjectHideFlags: 0
  m_CorrespondingSourceObject: {fileID: 0}
  m_PrefabInstance: {fileID: 0}
  m_PrefabAsset: {fileID: 0}
  serializedVersion: 6
  m_Component:
  - component: {fileID: 7072444061591351736}
  m_Layer: 0
  m_Name: ArmPosition_Left
  m_TagString: Untagged
  m_Icon: {fileID: 0}
  m_NavMeshLayer: 0
  m_StaticEditorFlags: 0
  m_IsActive: 1
--- !u!4 &7072444061591351736
Transform:
  m_ObjectHideFlags: 0
  m_CorrespondingSourceObject: {fileID: 0}
  m_PrefabInstance: {fileID: 0}
  m_PrefabAsset: {fileID: 0}
  m_GameObject: {fileID: 7072444061591711128}
  m_LocalRotation: {x: 0.0073521743, y: 0.002535718, z: 0.88095385, w: 0.47313833}
  m_LocalPosition: {x: -2.423428, y: -55.614994, z: -120.53}
  m_LocalScale: {x: 1, y: 1, z: 1}
  m_Children: []
  m_Father: {fileID: 7072444061591351702}
  m_RootOrder: 0
  m_LocalEulerAnglesHint: {x: 0, y: 0, z: 0}
--- !u!1 &7072444061591711130
GameObject:
  m_ObjectHideFlags: 0
  m_CorrespondingSourceObject: {fileID: 0}
  m_PrefabInstance: {fileID: 0}
  m_PrefabAsset: {fileID: 0}
  serializedVersion: 6
  m_Component:
  - component: {fileID: 7072444061591351738}
  m_Layer: 0
  m_Name: ArmPosition_Right
  m_TagString: Untagged
  m_Icon: {fileID: 0}
  m_NavMeshLayer: 0
  m_StaticEditorFlags: 0
  m_IsActive: 1
--- !u!4 &7072444061591351738
Transform:
  m_ObjectHideFlags: 0
  m_CorrespondingSourceObject: {fileID: 0}
  m_PrefabInstance: {fileID: 0}
  m_PrefabAsset: {fileID: 0}
  m_GameObject: {fileID: 7072444061591711130}
  m_LocalRotation: {x: 0.0025357183, y: -0.0073521743, z: -0.47313836, w: 0.88095385}
  m_LocalPosition: {x: -2.423428, y: -55.614994, z: 120.53}
  m_LocalScale: {x: 1, y: 1, z: 1}
  m_Children:
  - {fileID: 7072444061591351694}
  - {fileID: 7072444061591351750}
  m_Father: {fileID: 7072444061591351702}
  m_RootOrder: 1
  m_LocalEulerAnglesHint: {x: 0, y: 0, z: 0}
--- !u!1 &7072444061591711134
GameObject:
  m_ObjectHideFlags: 0
  m_CorrespondingSourceObject: {fileID: 0}
  m_PrefabInstance: {fileID: 0}
  m_PrefabAsset: {fileID: 0}
  serializedVersion: 6
  m_Component:
  - component: {fileID: 7072444061591351742}
  m_Layer: 0
  m_Name: BackPack
  m_TagString: Untagged
  m_Icon: {fileID: 0}
  m_NavMeshLayer: 0
  m_StaticEditorFlags: 0
  m_IsActive: 1
--- !u!4 &7072444061591351742
Transform:
  m_ObjectHideFlags: 0
  m_CorrespondingSourceObject: {fileID: 0}
  m_PrefabInstance: {fileID: 0}
  m_PrefabAsset: {fileID: 0}
  m_GameObject: {fileID: 7072444061591711134}
  m_LocalRotation: {x: -0.3617453, y: 0.5306367, z: 0.3968756, w: 0.6557856}
  m_LocalPosition: {x: -10.219411, y: -38.523506, z: 0.00000010329652}
  m_LocalScale: {x: 1, y: 1, z: 1}
  m_Children:
  - {fileID: 7072444061591351730}
  - {fileID: 7072444061591351732}
  - {fileID: 7072444061591351734}
  m_Father: {fileID: 7072444061591351716}
  m_RootOrder: 0
  m_LocalEulerAnglesHint: {x: 0, y: 0, z: 0}
--- !u!1 &7072444061591711168
GameObject:
  m_ObjectHideFlags: 0
  m_CorrespondingSourceObject: {fileID: 0}
  m_PrefabInstance: {fileID: 0}
  m_PrefabAsset: {fileID: 0}
  serializedVersion: 6
  m_Component:
  - component: {fileID: 7072444061591351776}
  m_Layer: 0
  m_Name: Shoulder_Left
  m_TagString: Untagged
  m_Icon: {fileID: 0}
  m_NavMeshLayer: 0
  m_StaticEditorFlags: 0
  m_IsActive: 1
--- !u!4 &7072444061591351776
Transform:
  m_ObjectHideFlags: 0
  m_CorrespondingSourceObject: {fileID: 0}
  m_PrefabInstance: {fileID: 0}
  m_PrefabAsset: {fileID: 0}
  m_GameObject: {fileID: 7072444061591711168}
  m_LocalRotation: {x: -0.2988425, y: 0.7341269, z: 0.41826975, w: 0.4436229}
  m_LocalPosition: {x: -12.348807, y: -6.29741, z: 18.706108}
  m_LocalScale: {x: 1, y: 1, z: 1}
  m_Children:
  - {fileID: 7072444061591351788}
  - {fileID: 7072444061591351752}
  m_Father: {fileID: 7072444061591351716}
  m_RootOrder: 2
  m_LocalEulerAnglesHint: {x: 0, y: 0, z: 0}
--- !u!1 &7072444061591711170
GameObject:
  m_ObjectHideFlags: 0
  m_CorrespondingSourceObject: {fileID: 0}
  m_PrefabInstance: {fileID: 0}
  m_PrefabAsset: {fileID: 0}
  serializedVersion: 6
  m_Component:
  - component: {fileID: 7072444061591351778}
  m_Layer: 0
  m_Name: Shoulder_Right
  m_TagString: Untagged
  m_Icon: {fileID: 0}
  m_NavMeshLayer: 0
  m_StaticEditorFlags: 0
  m_IsActive: 1
--- !u!4 &7072444061591351778
Transform:
  m_ObjectHideFlags: 0
  m_CorrespondingSourceObject: {fileID: 0}
  m_PrefabInstance: {fileID: 0}
  m_PrefabAsset: {fileID: 0}
  m_GameObject: {fileID: 7072444061591711170}
  m_LocalRotation: {x: -0.29884863, y: 0.73412436, z: -0.41826612, w: -0.4436265}
  m_LocalPosition: {x: -12.348376, y: -6.29761, z: -18.7061}
  m_LocalScale: {x: 1, y: 1, z: 1}
  m_Children:
  - {fileID: 7072444061591351790}
  - {fileID: 7072444061591351754}
  m_Father: {fileID: 7072444061591351716}
  m_RootOrder: 3
  m_LocalEulerAnglesHint: {x: 0, y: 0, z: 0}
--- !u!1 &7072444061591711172
GameObject:
  m_ObjectHideFlags: 0
  m_CorrespondingSourceObject: {fileID: 0}
  m_PrefabInstance: {fileID: 0}
  m_PrefabAsset: {fileID: 0}
  serializedVersion: 6
  m_Component:
  - component: {fileID: 7072444061591351780}
  m_Layer: 0
  m_Name: ShoulderPadBlade_Left
  m_TagString: Untagged
  m_Icon: {fileID: 0}
  m_NavMeshLayer: 0
  m_StaticEditorFlags: 0
  m_IsActive: 1
--- !u!4 &7072444061591351780
Transform:
  m_ObjectHideFlags: 0
  m_CorrespondingSourceObject: {fileID: 0}
  m_PrefabInstance: {fileID: 0}
  m_PrefabAsset: {fileID: 0}
  m_GameObject: {fileID: 7072444061591711172}
  m_LocalRotation: {x: 0.0066350633, y: -0.011333145, z: 0.5051939, w: 0.862906}
  m_LocalPosition: {x: -13.296959, y: -22.176832, z: -0.5073402}
  m_LocalScale: {x: 1, y: 1, z: 1}
  m_Children: []
  m_Father: {fileID: 7072444061591351788}
  m_RootOrder: 0
  m_LocalEulerAnglesHint: {x: 0, y: 0, z: 0}
--- !u!1 &7072444061591711174
GameObject:
  m_ObjectHideFlags: 0
  m_CorrespondingSourceObject: {fileID: 0}
  m_PrefabInstance: {fileID: 0}
  m_PrefabAsset: {fileID: 0}
  serializedVersion: 6
  m_Component:
  - component: {fileID: 7072444061591351782}
  m_Layer: 0
  m_Name: ShoulderPadBlade_Right
  m_TagString: Untagged
  m_Icon: {fileID: 0}
  m_NavMeshLayer: 0
  m_StaticEditorFlags: 0
  m_IsActive: 1
--- !u!4 &7072444061591351782
Transform:
  m_ObjectHideFlags: 0
  m_CorrespondingSourceObject: {fileID: 0}
  m_PrefabInstance: {fileID: 0}
  m_PrefabAsset: {fileID: 0}
  m_GameObject: {fileID: 7072444061591711174}
  m_LocalRotation: {x: -0.0066352007, y: 0.011333432, z: 0.50519216, w: 0.86290693}
  m_LocalPosition: {x: -13.296815, y: -22.177006, z: 0.5073527}
  m_LocalScale: {x: 1, y: 1, z: 1}
  m_Children: []
  m_Father: {fileID: 7072444061591351790}
  m_RootOrder: 0
  m_LocalEulerAnglesHint: {x: 0, y: 0, z: 0}
--- !u!1 &7072444061591711176
GameObject:
  m_ObjectHideFlags: 0
  m_CorrespondingSourceObject: {fileID: 0}
  m_PrefabInstance: {fileID: 0}
  m_PrefabAsset: {fileID: 0}
  serializedVersion: 6
  m_Component:
  - component: {fileID: 7072444061591351784}
  m_Layer: 0
  m_Name: ShoulderPadBody_Left
  m_TagString: Untagged
  m_Icon: {fileID: 0}
  m_NavMeshLayer: 0
  m_StaticEditorFlags: 0
  m_IsActive: 1
--- !u!4 &7072444061591351784
Transform:
  m_ObjectHideFlags: 0
  m_CorrespondingSourceObject: {fileID: 0}
  m_PrefabInstance: {fileID: 0}
  m_PrefabAsset: {fileID: 0}
  m_GameObject: {fileID: 7072444061591711176}
  m_LocalRotation: {x: 0.0066350633, y: -0.011333145, z: 0.5051939, w: 0.862906}
  m_LocalPosition: {x: -16.023825, y: -1.4210855e-14, z: 2.6645353e-15}
  m_LocalScale: {x: 1, y: 1, z: 1}
  m_Children: []
  m_Father: {fileID: 7072444061591351788}
  m_RootOrder: 1
  m_LocalEulerAnglesHint: {x: 0, y: 0, z: 0}
--- !u!1 &7072444061591711178
GameObject:
  m_ObjectHideFlags: 0
  m_CorrespondingSourceObject: {fileID: 0}
  m_PrefabInstance: {fileID: 0}
  m_PrefabAsset: {fileID: 0}
  serializedVersion: 6
  m_Component:
  - component: {fileID: 7072444061591351786}
  m_Layer: 0
  m_Name: ShoulderPadBody_Right
  m_TagString: Untagged
  m_Icon: {fileID: 0}
  m_NavMeshLayer: 0
  m_StaticEditorFlags: 0
  m_IsActive: 1
--- !u!4 &7072444061591351786
Transform:
  m_ObjectHideFlags: 0
  m_CorrespondingSourceObject: {fileID: 0}
  m_PrefabInstance: {fileID: 0}
  m_PrefabAsset: {fileID: 0}
  m_GameObject: {fileID: 7072444061591711178}
  m_LocalRotation: {x: -0.0066352007, y: 0.011333432, z: 0.50519216, w: 0.86290693}
  m_LocalPosition: {x: -16.02375, y: -6.3948846e-14, z: 1.2878587e-14}
  m_LocalScale: {x: 1, y: 1, z: 1}
  m_Children: []
  m_Father: {fileID: 7072444061591351790}
  m_RootOrder: 1
  m_LocalEulerAnglesHint: {x: 0, y: 0, z: 0}
--- !u!1 &7072444061591711180
GameObject:
  m_ObjectHideFlags: 0
  m_CorrespondingSourceObject: {fileID: 0}
  m_PrefabInstance: {fileID: 0}
  m_PrefabAsset: {fileID: 0}
  serializedVersion: 6
  m_Component:
  - component: {fileID: 7072444061591351788}
  m_Layer: 0
  m_Name: ShoulderPadCTRL_Left
  m_TagString: Untagged
  m_Icon: {fileID: 0}
  m_NavMeshLayer: 0
  m_StaticEditorFlags: 0
  m_IsActive: 1
--- !u!4 &7072444061591351788
Transform:
  m_ObjectHideFlags: 0
  m_CorrespondingSourceObject: {fileID: 0}
  m_PrefabInstance: {fileID: 0}
  m_PrefabAsset: {fileID: 0}
  m_GameObject: {fileID: 7072444061591711180}
  m_LocalRotation: {x: 0.039328095, y: -0.109450735, z: -0.65068716, w: 0.75038666}
  m_LocalPosition: {x: -9.938806, y: 14.657373, z: -1.0394562}
  m_LocalScale: {x: 1, y: 1, z: 1}
  m_Children:
  - {fileID: 7072444061591351780}
  - {fileID: 7072444061591351784}
  m_Father: {fileID: 7072444061591351776}
  m_RootOrder: 0
  m_LocalEulerAnglesHint: {x: 0, y: 0, z: 0}
--- !u!1 &7072444061591711182
GameObject:
  m_ObjectHideFlags: 0
  m_CorrespondingSourceObject: {fileID: 0}
  m_PrefabInstance: {fileID: 0}
  m_PrefabAsset: {fileID: 0}
  serializedVersion: 6
  m_Component:
  - component: {fileID: 7072444061591351790}
  m_Layer: 0
  m_Name: ShoulderPadCTRL_Right
  m_TagString: Untagged
  m_Icon: {fileID: 0}
  m_NavMeshLayer: 0
  m_StaticEditorFlags: 0
  m_IsActive: 1
--- !u!4 &7072444061591351790
Transform:
  m_ObjectHideFlags: 0
  m_CorrespondingSourceObject: {fileID: 0}
  m_PrefabInstance: {fileID: 0}
  m_PrefabAsset: {fileID: 0}
  m_GameObject: {fileID: 7072444061591711182}
  m_LocalRotation: {x: -0.039328646, y: 0.10945006, z: -0.6506794, w: 0.7503934}
  m_LocalPosition: {x: -9.938715, y: 14.657999, z: 1.039447}
  m_LocalScale: {x: 1, y: 1, z: 1}
  m_Children:
  - {fileID: 7072444061591351782}
  - {fileID: 7072444061591351786}
  m_Father: {fileID: 7072444061591351778}
  m_RootOrder: 0
  m_LocalEulerAnglesHint: {x: 0, y: 0, z: 0}
--- !u!1 &7072444061591711184
GameObject:
  m_ObjectHideFlags: 0
  m_CorrespondingSourceObject: {fileID: 0}
  m_PrefabInstance: {fileID: 0}
  m_PrefabAsset: {fileID: 0}
  serializedVersion: 6
  m_Component:
  - component: {fileID: 7072444061591351792}
  m_Layer: 0
  m_Name: Neck
  m_TagString: Untagged
  m_Icon: {fileID: 0}
  m_NavMeshLayer: 0
  m_StaticEditorFlags: 0
  m_IsActive: 1
--- !u!4 &7072444061591351792
Transform:
  m_ObjectHideFlags: 0
  m_CorrespondingSourceObject: {fileID: 0}
  m_PrefabInstance: {fileID: 0}
  m_PrefabAsset: {fileID: 0}
  m_GameObject: {fileID: 7072444061591711184}
  m_LocalRotation: {x: 0.9631089, y: -0.26911193, z: 1.6478353e-17, w: -5.897341e-17}
  m_LocalPosition: {x: -17.7523, y: -2.842171e-14, z: 0.000000026610966}
  m_LocalScale: {x: 1, y: 1, z: 1}
  m_Children:
  - {fileID: 7072444061591351726}
  m_Father: {fileID: 7072444061591351716}
  m_RootOrder: 1
  m_LocalEulerAnglesHint: {x: 0, y: 0, z: 0}
--- !u!1 &7072444061591711186
GameObject:
  m_ObjectHideFlags: 0
  m_CorrespondingSourceObject: {fileID: 0}
  m_PrefabInstance: {fileID: 0}
  m_PrefabAsset: {fileID: 0}
  serializedVersion: 6
  m_Component:
  - component: {fileID: 7072444061591351794}
  - component: {fileID: 7072444061582351952}
  m_Layer: 0
  m_Name: PolyartCharacter
  m_TagString: Untagged
  m_Icon: {fileID: 0}
  m_NavMeshLayer: 0
  m_StaticEditorFlags: 0
  m_IsActive: 1
--- !u!4 &7072444061591351794
Transform:
  m_ObjectHideFlags: 0
  m_CorrespondingSourceObject: {fileID: 0}
  m_PrefabInstance: {fileID: 0}
  m_PrefabAsset: {fileID: 0}
  m_GameObject: {fileID: 7072444061591711186}
  m_LocalRotation: {x: 0, y: 0, z: 0, w: 1}
  m_LocalPosition: {x: 0, y: 0, z: 0}
  m_LocalScale: {x: 1, y: 1, z: 1}
  m_Children:
  - {fileID: 7072444061591351728}
  - {fileID: 7072444061591351740}
  - {fileID: 7072444061591351712}
  - {fileID: 7072444061591351714}
  - {fileID: 7072444061591351696}
  - {fileID: 7072444061591351702}
  - {fileID: 7072444061591351684}
  m_Father: {fileID: 0}
  m_RootOrder: 0
  m_LocalEulerAnglesHint: {x: 0, y: 0, z: 0}
--- !u!95 &7072444061582351952
Animator:
  serializedVersion: 3
  m_ObjectHideFlags: 0
  m_CorrespondingSourceObject: {fileID: 0}
  m_PrefabInstance: {fileID: 0}
  m_PrefabAsset: {fileID: 0}
  m_GameObject: {fileID: 7072444061591711186}
  m_Enabled: 1
  m_Avatar: {fileID: 9000000, guid: 860793eb3324391468f1c120a75ec049, type: 3}
  m_Controller: {fileID: 9100000, guid: 6defa2fea7e9a934a8d2cafa30dc567a, type: 2}
  m_CullingMode: 1
  m_UpdateMode: 0
  m_ApplyRootMotion: 0
  m_LinearVelocityBlending: 0
  m_WarningMessage: 
  m_HasTransformHierarchy: 1
  m_AllowConstantClipSamplingOptimization: 1
  m_KeepAnimatorControllerStateOnDisable: 0
--- !u!1 &7072444061591711188
GameObject:
  m_ObjectHideFlags: 0
  m_CorrespondingSourceObject: {fileID: 0}
  m_PrefabInstance: {fileID: 0}
  m_PrefabAsset: {fileID: 0}
  serializedVersion: 6
  m_Component:
  - component: {fileID: 7072444061591351796}
  m_Layer: 0
  m_Name: RestOfFingers_Distal_Left
  m_TagString: Untagged
  m_Icon: {fileID: 0}
  m_NavMeshLayer: 0
  m_StaticEditorFlags: 0
  m_IsActive: 1
--- !u!4 &7072444061591351796
Transform:
  m_ObjectHideFlags: 0
  m_CorrespondingSourceObject: {fileID: 0}
  m_PrefabInstance: {fileID: 0}
  m_PrefabAsset: {fileID: 0}
  m_GameObject: {fileID: 7072444061591711188}
  m_LocalRotation: {x: -0.004532425, y: -0.003425033, z: 0.11285209, w: 0.9935956}
  m_LocalPosition: {x: -8.173605, y: -8.526513e-14, z: -3.5527137e-15}
  m_LocalScale: {x: 1, y: 1, z: 1}
  m_Children: []
  m_Father: {fileID: 7072444061591351800}
  m_RootOrder: 0
  m_LocalEulerAnglesHint: {x: 0, y: 0, z: 0}
--- !u!1 &7072444061591711190
GameObject:
  m_ObjectHideFlags: 0
  m_CorrespondingSourceObject: {fileID: 0}
  m_PrefabInstance: {fileID: 0}
  m_PrefabAsset: {fileID: 0}
  serializedVersion: 6
  m_Component:
  - component: {fileID: 7072444061591351798}
  m_Layer: 0
  m_Name: RestOfFingers_Distal_Right
  m_TagString: Untagged
  m_Icon: {fileID: 0}
  m_NavMeshLayer: 0
  m_StaticEditorFlags: 0
  m_IsActive: 1
--- !u!4 &7072444061591351798
Transform:
  m_ObjectHideFlags: 0
  m_CorrespondingSourceObject: {fileID: 0}
  m_PrefabInstance: {fileID: 0}
  m_PrefabAsset: {fileID: 0}
  m_GameObject: {fileID: 7072444061591711190}
  m_LocalRotation: {x: 0.0041774614, y: 0.0038508072, z: 0.015434083, w: 0.99986476}
  m_LocalPosition: {x: -8.174185, y: 2.842171e-14, z: 2.6645353e-15}
  m_LocalScale: {x: 1, y: 1, z: 1}
  m_Children: []
  m_Father: {fileID: 7072444061591351802}
  m_RootOrder: 0
  m_LocalEulerAnglesHint: {x: 0, y: 0, z: 0}
--- !u!1 &7072444061591711192
GameObject:
  m_ObjectHideFlags: 0
  m_CorrespondingSourceObject: {fileID: 0}
  m_PrefabInstance: {fileID: 0}
  m_PrefabAsset: {fileID: 0}
  serializedVersion: 6
  m_Component:
  - component: {fileID: 7072444061591351800}
  m_Layer: 0
  m_Name: RestOfFingers_Intermediate_Left
  m_TagString: Untagged
  m_Icon: {fileID: 0}
  m_NavMeshLayer: 0
  m_StaticEditorFlags: 0
  m_IsActive: 1
--- !u!4 &7072444061591351800
Transform:
  m_ObjectHideFlags: 0
  m_CorrespondingSourceObject: {fileID: 0}
  m_PrefabInstance: {fileID: 0}
  m_PrefabAsset: {fileID: 0}
  m_GameObject: {fileID: 7072444061591711192}
  m_LocalRotation: {x: 0.0061717043, y: 0.012478555, z: 0.3440602, w: 0.9388444}
  m_LocalPosition: {x: -8.02586, y: -1.1368684e-13, z: -5.3290705e-15}
  m_LocalScale: {x: 1, y: 1, z: 1}
  m_Children:
  - {fileID: 7072444061591351796}
  m_Father: {fileID: 7072444061591351804}
  m_RootOrder: 0
  m_LocalEulerAnglesHint: {x: 0, y: 0, z: 0}
--- !u!1 &7072444061591711194
GameObject:
  m_ObjectHideFlags: 0
  m_CorrespondingSourceObject: {fileID: 0}
  m_PrefabInstance: {fileID: 0}
  m_PrefabAsset: {fileID: 0}
  serializedVersion: 6
  m_Component:
  - component: {fileID: 7072444061591351802}
  m_Layer: 0
  m_Name: RestOfFingers_Intermediate_Right
  m_TagString: Untagged
  m_Icon: {fileID: 0}
  m_NavMeshLayer: 0
  m_StaticEditorFlags: 0
  m_IsActive: 1
--- !u!4 &7072444061591351802
Transform:
  m_ObjectHideFlags: 0
  m_CorrespondingSourceObject: {fileID: 0}
  m_PrefabInstance: {fileID: 0}
  m_PrefabAsset: {fileID: 0}
  m_GameObject: {fileID: 7072444061591711194}
  m_LocalRotation: {x: -0.0061721927, y: -0.012479491, z: 0.3441051, w: 0.93882793}
  m_LocalPosition: {x: -8.025833, y: -1.7053026e-13, z: 4.8849813e-15}
  m_LocalScale: {x: 1, y: 1, z: 1}
  m_Children:
  - {fileID: 7072444061591351798}
  m_Father: {fileID: 7072444061591351806}
  m_RootOrder: 0
  m_LocalEulerAnglesHint: {x: 0, y: 0, z: 0}
--- !u!1 &7072444061591711196
GameObject:
  m_ObjectHideFlags: 0
  m_CorrespondingSourceObject: {fileID: 0}
  m_PrefabInstance: {fileID: 0}
  m_PrefabAsset: {fileID: 0}
  serializedVersion: 6
  m_Component:
  - component: {fileID: 7072444061591351804}
  m_Layer: 0
  m_Name: RestOfFingers_Proximal_Left
  m_TagString: Untagged
  m_Icon: {fileID: 0}
  m_NavMeshLayer: 0
  m_StaticEditorFlags: 0
  m_IsActive: 1
--- !u!4 &7072444061591351804
Transform:
  m_ObjectHideFlags: 0
  m_CorrespondingSourceObject: {fileID: 0}
  m_PrefabInstance: {fileID: 0}
  m_PrefabAsset: {fileID: 0}
  m_GameObject: {fileID: 7072444061591711196}
  m_LocalRotation: {x: 0.0028340812, y: 0.060178064, z: 0.060824323, w: 0.9963288}
  m_LocalPosition: {x: -18.094444, y: 5.684342e-14, z: 1.7763568e-15}
  m_LocalScale: {x: 1, y: 1, z: 1}
  m_Children:
  - {fileID: 7072444061591351800}
  m_Father: {fileID: 7072444061591351722}
  m_RootOrder: 1
  m_LocalEulerAnglesHint: {x: 0, y: 0, z: 0}
--- !u!1 &7072444061591711198
GameObject:
  m_ObjectHideFlags: 0
  m_CorrespondingSourceObject: {fileID: 0}
  m_PrefabInstance: {fileID: 0}
  m_PrefabAsset: {fileID: 0}
  serializedVersion: 6
  m_Component:
  - component: {fileID: 7072444061591351806}
  m_Layer: 0
  m_Name: RestOfFingers_Proximal_Right
  m_TagString: Untagged
  m_Icon: {fileID: 0}
  m_NavMeshLayer: 0
  m_StaticEditorFlags: 0
  m_IsActive: 1
--- !u!4 &7072444061591351806
Transform:
  m_ObjectHideFlags: 0
  m_CorrespondingSourceObject: {fileID: 0}
  m_PrefabInstance: {fileID: 0}
  m_PrefabAsset: {fileID: 0}
  m_GameObject: {fileID: 7072444061591711198}
  m_LocalRotation: {x: -0.0028322286, y: -0.060177784, z: 0.060808677, w: 0.9963297}
  m_LocalPosition: {x: -18.094389, y: 8.526513e-14, z: -1.0658141e-14}
  m_LocalScale: {x: 1, y: 1, z: 1}
  m_Children:
  - {fileID: 7072444061591351802}
  m_Father: {fileID: 7072444061591351724}
  m_RootOrder: 1
  m_LocalEulerAnglesHint: {x: 0, y: 0, z: 0}
--- !u!1 &7072444061591711200
GameObject:
  m_ObjectHideFlags: 0
  m_CorrespondingSourceObject: {fileID: 0}
  m_PrefabInstance: {fileID: 0}
  m_PrefabAsset: {fileID: 0}
  serializedVersion: 6
  m_Component:
  - component: {fileID: 7072444061591351680}
  m_Layer: 0
  m_Name: Index_Proximal_Left
  m_TagString: Untagged
  m_Icon: {fileID: 0}
  m_NavMeshLayer: 0
  m_StaticEditorFlags: 0
  m_IsActive: 1
--- !u!4 &7072444061591351680
Transform:
  m_ObjectHideFlags: 0
  m_CorrespondingSourceObject: {fileID: 0}
  m_PrefabInstance: {fileID: 0}
  m_PrefabAsset: {fileID: 0}
  m_GameObject: {fileID: 7072444061591711200}
  m_LocalRotation: {x: 0.0028642316, y: 0.04212831, z: 0.08163239, w: 0.9957676}
  m_LocalPosition: {x: -13.357445, y: -0.09144714, z: 13.440094}
  m_LocalScale: {x: 1, y: 1, z: 1}
  m_Children:
  - {fileID: 7072444061591351708}
  m_Father: {fileID: 7072444061591351722}
  m_RootOrder: 0
  m_LocalEulerAnglesHint: {x: 0, y: 0, z: 0}
--- !u!1 &7072444061591711202
GameObject:
  m_ObjectHideFlags: 0
  m_CorrespondingSourceObject: {fileID: 0}
  m_PrefabInstance: {fileID: 0}
  m_PrefabAsset: {fileID: 0}
  serializedVersion: 6
  m_Component:
  - component: {fileID: 7072444061591351682}
  m_Layer: 0
  m_Name: Index_Proximal_Right
  m_TagString: Untagged
  m_Icon: {fileID: 0}
  m_NavMeshLayer: 0
  m_StaticEditorFlags: 0
  m_IsActive: 1
--- !u!4 &7072444061591351682
Transform:
  m_ObjectHideFlags: 0
  m_CorrespondingSourceObject: {fileID: 0}
  m_PrefabInstance: {fileID: 0}
  m_PrefabAsset: {fileID: 0}
  m_GameObject: {fileID: 7072444061591711202}
  m_LocalRotation: {x: -0.0028644414, y: -0.042128764, z: 0.08165133, w: 0.99576604}
  m_LocalPosition: {x: -13.357139, y: -0.09103328, z: -13.440055}
  m_LocalScale: {x: 1, y: 1, z: 1}
  m_Children:
  - {fileID: 7072444061591351710}
  m_Father: {fileID: 7072444061591351724}
  m_RootOrder: 0
  m_LocalEulerAnglesHint: {x: 0, y: 0, z: 0}
--- !u!1 &7072444061591711204
GameObject:
  m_ObjectHideFlags: 0
  m_CorrespondingSourceObject: {fileID: 0}
  m_PrefabInstance: {fileID: 0}
  m_PrefabAsset: {fileID: 0}
  serializedVersion: 6
  m_Component:
  - component: {fileID: 7072444061591351684}
  - component: {fileID: 7072444061578043546}
  m_Layer: 0
  m_Name: Leg1
  m_TagString: Untagged
  m_Icon: {fileID: 0}
  m_NavMeshLayer: 0
  m_StaticEditorFlags: 0
  m_IsActive: 1
--- !u!4 &7072444061591351684
Transform:
  m_ObjectHideFlags: 0
  m_CorrespondingSourceObject: {fileID: 0}
  m_PrefabInstance: {fileID: 0}
  m_PrefabAsset: {fileID: 0}
  m_GameObject: {fileID: 7072444061591711204}
  m_LocalRotation: {x: 0, y: -0, z: -0, w: 1}
  m_LocalPosition: {x: -0, y: -96.69518, z: -8.197696}
  m_LocalScale: {x: 0.01, y: 0.01, z: 0.01}
  m_Children: []
  m_Father: {fileID: 7072444061591351794}
  m_RootOrder: 6
  m_LocalEulerAnglesHint: {x: 0, y: 0, z: 0}
--- !u!137 &7072444061578043546
SkinnedMeshRenderer:
  m_ObjectHideFlags: 0
  m_CorrespondingSourceObject: {fileID: 0}
  m_PrefabInstance: {fileID: 0}
  m_PrefabAsset: {fileID: 0}
  m_GameObject: {fileID: 7072444061591711204}
  m_Enabled: 1
  m_CastShadows: 1
  m_ReceiveShadows: 1
  m_DynamicOccludee: 1
  m_MotionVectors: 1
  m_LightProbeUsage: 1
  m_ReflectionProbeUsage: 1
  m_RayTracingMode: 3
  m_RayTraceProcedural: 0
  m_RenderingLayerMask: 1
  m_RendererPriority: 0
  m_Materials:
  - {fileID: 2100000, guid: 78660c09ff101ea4cb77de408a9527da, type: 2}
  m_StaticBatchInfo:
    firstSubMesh: 0
    subMeshCount: 0
  m_StaticBatchRoot: {fileID: 0}
  m_ProbeAnchor: {fileID: 0}
  m_LightProbeVolumeOverride: {fileID: 0}
  m_ScaleInLightmap: 1
  m_ReceiveGI: 1
  m_PreserveUVs: 0
  m_IgnoreNormalsForChartDetection: 0
  m_ImportantGI: 0
  m_StitchLightmapSeams: 0
  m_SelectedEditorRenderState: 3
  m_MinimumChartSize: 4
  m_AutoUVMaxDistance: 0.5
  m_AutoUVMaxAngle: 89
  m_LightmapParameters: {fileID: 0}
  m_SortingLayerID: 0
  m_SortingLayer: 0
  m_SortingOrder: 0
  serializedVersion: 2
  m_Quality: 0
  m_UpdateWhenOffscreen: 0
  m_SkinnedMotionVectors: 1
  m_Mesh: {fileID: 4300008, guid: 860793eb3324391468f1c120a75ec049, type: 3}
  m_Bones:
  - {fileID: 7072444061591351702}
  - {fileID: 7072444061591351760}
  - {fileID: 7072444061591351716}
  - {fileID: 7072444061591351792}
  - {fileID: 7072444061591351726}
  - {fileID: 7072444061591351698}
  - {fileID: 7072444061591351700}
  - {fileID: 7072444061591351776}
  - {fileID: 7072444061591351752}
  - {fileID: 7072444061591351686}
  - {fileID: 7072444061591351722}
  - {fileID: 7072444061591351804}
  - {fileID: 7072444061591351800}
  - {fileID: 7072444061591351796}
  - {fileID: 7072444061591351680}
  - {fileID: 7072444061591351708}
  - {fileID: 7072444061591351704}
  - {fileID: 7072444061591351770}
  - {fileID: 7072444061591351766}
  - {fileID: 7072444061591351762}
  - {fileID: 7072444061591351788}
  - {fileID: 7072444061591351784}
  - {fileID: 7072444061591351780}
  - {fileID: 7072444061591351778}
  - {fileID: 7072444061591351754}
  - {fileID: 7072444061591351688}
  - {fileID: 7072444061591351724}
  - {fileID: 7072444061591351806}
  - {fileID: 7072444061591351802}
  - {fileID: 7072444061591351798}
  - {fileID: 7072444061591351682}
  - {fileID: 7072444061591351710}
  - {fileID: 7072444061591351706}
  - {fileID: 7072444061591351772}
  - {fileID: 7072444061591351768}
  - {fileID: 7072444061591351764}
  - {fileID: 7072444061591351790}
  - {fileID: 7072444061591351786}
  - {fileID: 7072444061591351782}
  - {fileID: 7072444061591351742}
  - {fileID: 7072444061591351730}
  - {fileID: 7072444061591351734}
  - {fileID: 7072444061591351732}
  - {fileID: 7072444061591351756}
  - {fileID: 7072444061591351690}
  - {fileID: 7072444061591351718}
  - {fileID: 7072444061591351774}
  - {fileID: 7072444061591351746}
  - {fileID: 7072444061591351758}
  - {fileID: 7072444061591351692}
  - {fileID: 7072444061591351720}
  - {fileID: 7072444061591351744}
  - {fileID: 7072444061591351748}
  - {fileID: 7072444061591351738}
  - {fileID: 7072444061591351694}
  - {fileID: 7072444061591351750}
  - {fileID: 7072444061591351736}
  m_BlendShapeWeights: []
  m_RootBone: {fileID: 7072444061591351702}
  m_AABB:
    m_Center: {x: 53.24073, y: -15.325765, z: 0.17397118}
    m_Extent: {x: 69.29029, y: 36.12146, z: 51.77101}
  m_DirtyAABB: 0
--- !u!1 &7072444061591711206
GameObject:
  m_ObjectHideFlags: 0
  m_CorrespondingSourceObject: {fileID: 0}
  m_PrefabInstance: {fileID: 0}
  m_PrefabAsset: {fileID: 0}
  serializedVersion: 6
  m_Component:
  - component: {fileID: 7072444061591351686}
  m_Layer: 0
  m_Name: LowerArm_Left
  m_TagString: Untagged
  m_Icon: {fileID: 0}
  m_NavMeshLayer: 0
  m_StaticEditorFlags: 0
  m_IsActive: 1
--- !u!4 &7072444061591351686
Transform:
  m_ObjectHideFlags: 0
  m_CorrespondingSourceObject: {fileID: 0}
  m_PrefabInstance: {fileID: 0}
  m_PrefabAsset: {fileID: 0}
  m_GameObject: {fileID: 7072444061591711206}
  m_LocalRotation: {x: -1.11818e-29, y: 0.049585894, z: 1.0904029e-28, w: 0.9987699}
  m_LocalPosition: {x: -33.66694, y: 2.842171e-14, z: 4.2188475e-15}
  m_LocalScale: {x: 1, y: 1, z: 1}
  m_Children:
  - {fileID: 7072444061591351722}
  m_Father: {fileID: 7072444061591351752}
  m_RootOrder: 0
  m_LocalEulerAnglesHint: {x: 0, y: 0, z: 0}
--- !u!1 &7072444061591711208
GameObject:
  m_ObjectHideFlags: 0
  m_CorrespondingSourceObject: {fileID: 0}
  m_PrefabInstance: {fileID: 0}
  m_PrefabAsset: {fileID: 0}
  serializedVersion: 6
  m_Component:
  - component: {fileID: 7072444061591351688}
  m_Layer: 0
  m_Name: LowerArm_Right
  m_TagString: Untagged
  m_Icon: {fileID: 0}
  m_NavMeshLayer: 0
  m_StaticEditorFlags: 0
  m_IsActive: 1
--- !u!4 &7072444061591351688
Transform:
  m_ObjectHideFlags: 0
  m_CorrespondingSourceObject: {fileID: 0}
  m_PrefabInstance: {fileID: 0}
  m_PrefabAsset: {fileID: 0}
  m_GameObject: {fileID: 7072444061591711208}
  m_LocalRotation: {x: 4.9720758e-29, y: -0.049585804, z: 1.0024346e-27, w: 0.9987699}
  m_LocalPosition: {x: -33.666927, y: 0, z: -1.4432899e-15}
  m_LocalScale: {x: 1, y: 1, z: 1}
  m_Children:
  - {fileID: 7072444061591351724}
  m_Father: {fileID: 7072444061591351754}
  m_RootOrder: 0
  m_LocalEulerAnglesHint: {x: 0, y: 0, z: 0}
--- !u!1 &7072444061591711210
GameObject:
  m_ObjectHideFlags: 0
  m_CorrespondingSourceObject: {fileID: 0}
  m_PrefabInstance: {fileID: 0}
  m_PrefabAsset: {fileID: 0}
  serializedVersion: 6
  m_Component:
  - component: {fileID: 7072444061591351690}
  m_Layer: 0
  m_Name: LowerLeg_Left
  m_TagString: Untagged
  m_Icon: {fileID: 0}
  m_NavMeshLayer: 0
  m_StaticEditorFlags: 0
  m_IsActive: 1
--- !u!4 &7072444061591351690
Transform:
  m_ObjectHideFlags: 0
  m_CorrespondingSourceObject: {fileID: 0}
  m_PrefabInstance: {fileID: 0}
  m_PrefabAsset: {fileID: 0}
  m_GameObject: {fileID: 7072444061591711210}
  m_LocalRotation: {x: -0.6640286, y: -0.051458772, z: -0.042404156, w: 0.74472815}
  m_LocalPosition: {x: -33.436848, y: -2.4868996e-14, z: 6.217249e-15}
  m_LocalScale: {x: 1, y: 1, z: 1}
  m_Children:
  - {fileID: 7072444061591351718}
  m_Father: {fileID: 7072444061591351756}
  m_RootOrder: 0
  m_LocalEulerAnglesHint: {x: 0, y: 0, z: 0}
--- !u!1 &7072444061591711212
GameObject:
  m_ObjectHideFlags: 0
  m_CorrespondingSourceObject: {fileID: 0}
  m_PrefabInstance: {fileID: 0}
  m_PrefabAsset: {fileID: 0}
  serializedVersion: 6
  m_Component:
  - component: {fileID: 7072444061591351692}
  m_Layer: 0
  m_Name: LowerLeg_Right
  m_TagString: Untagged
  m_Icon: {fileID: 0}
  m_NavMeshLayer: 0
  m_StaticEditorFlags: 0
  m_IsActive: 1
--- !u!4 &7072444061591351692
Transform:
  m_ObjectHideFlags: 0
  m_CorrespondingSourceObject: {fileID: 0}
  m_PrefabInstance: {fileID: 0}
  m_PrefabAsset: {fileID: 0}
  m_GameObject: {fileID: 7072444061591711212}
  m_LocalRotation: {x: 0.66088396, y: 0.05163587, z: -0.04218814, w: 0.74752015}
  m_LocalPosition: {x: -33.437313, y: 4.973799e-14, z: -8.881784e-15}
  m_LocalScale: {x: 1, y: 1, z: 1}
  m_Children:
  - {fileID: 7072444061591351720}
  m_Father: {fileID: 7072444061591351758}
  m_RootOrder: 0
  m_LocalEulerAnglesHint: {x: 0, y: 0, z: 0}
--- !u!1 &7072444061591711214
GameObject:
  m_ObjectHideFlags: 0
  m_CorrespondingSourceObject: {fileID: 0}
  m_PrefabInstance: {fileID: 0}
  m_PrefabAsset: {fileID: 0}
  serializedVersion: 6
  m_Component:
  - component: {fileID: 7072444061591351694}
  m_Layer: 0
  m_Name: magazine_Right
  m_TagString: Untagged
  m_Icon: {fileID: 0}
  m_NavMeshLayer: 0
  m_StaticEditorFlags: 0
  m_IsActive: 1
--- !u!4 &7072444061591351694
Transform:
  m_ObjectHideFlags: 0
  m_CorrespondingSourceObject: {fileID: 0}
  m_PrefabInstance: {fileID: 0}
  m_PrefabAsset: {fileID: 0}
  m_GameObject: {fileID: 7072444061591711214}
  m_LocalRotation: {x: -0.4881349, y: 0.5173824, z: 0.48743477, w: 0.5064061}
  m_LocalPosition: {x: -0.004472253, y: -40.147858, z: 0.03500123}
  m_LocalScale: {x: 1, y: 1, z: 1}
  m_Children: []
  m_Father: {fileID: 7072444061591351738}
  m_RootOrder: 0
  m_LocalEulerAnglesHint: {x: 0, y: 0, z: 0}
--- !u!1 &7072444061591711216
GameObject:
  m_ObjectHideFlags: 0
  m_CorrespondingSourceObject: {fileID: 0}
  m_PrefabInstance: {fileID: 0}
  m_PrefabAsset: {fileID: 0}
  serializedVersion: 6
  m_Component:
  - component: {fileID: 7072444061591351696}
  - component: {fileID: 7072444061578043544}
  m_Layer: 0
  m_Name: head1
  m_TagString: Untagged
  m_Icon: {fileID: 0}
  m_NavMeshLayer: 0
  m_StaticEditorFlags: 0
  m_IsActive: 1
--- !u!4 &7072444061591351696
Transform:
  m_ObjectHideFlags: 0
  m_CorrespondingSourceObject: {fileID: 0}
  m_PrefabInstance: {fileID: 0}
  m_PrefabAsset: {fileID: 0}
  m_GameObject: {fileID: 7072444061591711216}
  m_LocalRotation: {x: 0, y: -0, z: -0, w: 1}
  m_LocalPosition: {x: -0, y: -176.9416, z: -6.1230974}
  m_LocalScale: {x: 0.01, y: 0.01, z: 0.01}
  m_Children: []
  m_Father: {fileID: 7072444061591351794}
  m_RootOrder: 4
  m_LocalEulerAnglesHint: {x: 0, y: 0, z: 0}
--- !u!137 &7072444061578043544
SkinnedMeshRenderer:
  m_ObjectHideFlags: 0
  m_CorrespondingSourceObject: {fileID: 0}
  m_PrefabInstance: {fileID: 0}
  m_PrefabAsset: {fileID: 0}
  m_GameObject: {fileID: 7072444061591711216}
  m_Enabled: 1
  m_CastShadows: 1
  m_ReceiveShadows: 1
  m_DynamicOccludee: 1
  m_MotionVectors: 1
  m_LightProbeUsage: 1
  m_ReflectionProbeUsage: 1
  m_RayTracingMode: 3
  m_RayTraceProcedural: 0
  m_RenderingLayerMask: 1
  m_RendererPriority: 0
  m_Materials:
  - {fileID: 2100000, guid: 78660c09ff101ea4cb77de408a9527da, type: 2}
  m_StaticBatchInfo:
    firstSubMesh: 0
    subMeshCount: 0
  m_StaticBatchRoot: {fileID: 0}
  m_ProbeAnchor: {fileID: 0}
  m_LightProbeVolumeOverride: {fileID: 0}
  m_ScaleInLightmap: 1
  m_ReceiveGI: 1
  m_PreserveUVs: 0
  m_IgnoreNormalsForChartDetection: 0
  m_ImportantGI: 0
  m_StitchLightmapSeams: 0
  m_SelectedEditorRenderState: 3
  m_MinimumChartSize: 4
  m_AutoUVMaxDistance: 0.5
  m_AutoUVMaxAngle: 89
  m_LightmapParameters: {fileID: 0}
  m_SortingLayerID: 0
  m_SortingLayer: 0
  m_SortingOrder: 0
  serializedVersion: 2
  m_Quality: 0
  m_UpdateWhenOffscreen: 0
  m_SkinnedMotionVectors: 1
  m_Mesh: {fileID: 4300000, guid: 860793eb3324391468f1c120a75ec049, type: 3}
  m_Bones:
  - {fileID: 7072444061591351702}
  - {fileID: 7072444061591351760}
  - {fileID: 7072444061591351716}
  - {fileID: 7072444061591351792}
  - {fileID: 7072444061591351726}
  - {fileID: 7072444061591351698}
  - {fileID: 7072444061591351700}
  - {fileID: 7072444061591351776}
  - {fileID: 7072444061591351752}
  - {fileID: 7072444061591351686}
  - {fileID: 7072444061591351722}
  - {fileID: 7072444061591351804}
  - {fileID: 7072444061591351800}
  - {fileID: 7072444061591351796}
  - {fileID: 7072444061591351680}
  - {fileID: 7072444061591351708}
  - {fileID: 7072444061591351704}
  - {fileID: 7072444061591351770}
  - {fileID: 7072444061591351766}
  - {fileID: 7072444061591351762}
  - {fileID: 7072444061591351788}
  - {fileID: 7072444061591351784}
  - {fileID: 7072444061591351780}
  - {fileID: 7072444061591351778}
  - {fileID: 7072444061591351754}
  - {fileID: 7072444061591351688}
  - {fileID: 7072444061591351724}
  - {fileID: 7072444061591351806}
  - {fileID: 7072444061591351802}
  - {fileID: 7072444061591351798}
  - {fileID: 7072444061591351682}
  - {fileID: 7072444061591351710}
  - {fileID: 7072444061591351706}
  - {fileID: 7072444061591351772}
  - {fileID: 7072444061591351768}
  - {fileID: 7072444061591351764}
  - {fileID: 7072444061591351790}
  - {fileID: 7072444061591351786}
  - {fileID: 7072444061591351782}
  - {fileID: 7072444061591351742}
  - {fileID: 7072444061591351730}
  - {fileID: 7072444061591351734}
  - {fileID: 7072444061591351732}
  - {fileID: 7072444061591351756}
  - {fileID: 7072444061591351690}
  - {fileID: 7072444061591351718}
  - {fileID: 7072444061591351774}
  - {fileID: 7072444061591351746}
  - {fileID: 7072444061591351758}
  - {fileID: 7072444061591351692}
  - {fileID: 7072444061591351720}
  - {fileID: 7072444061591351744}
  - {fileID: 7072444061591351748}
  - {fileID: 7072444061591351738}
  - {fileID: 7072444061591351694}
  - {fileID: 7072444061591351750}
  - {fileID: 7072444061591351736}
  m_BlendShapeWeights: []
  m_RootBone: {fileID: 7072444061591351702}
  m_AABB:
    m_Center: {x: -71.52329, y: 10.616158, z: -1.0935726}
    m_Extent: {x: 26.513672, y: 26.529358, z: 17.550735}
  m_DirtyAABB: 0
--- !u!1 &7072444061591711218
GameObject:
  m_ObjectHideFlags: 0
  m_CorrespondingSourceObject: {fileID: 0}
  m_PrefabInstance: {fileID: 0}
  m_PrefabAsset: {fileID: 0}
  serializedVersion: 6
  m_Component:
  - component: {fileID: 7072444061591351698}
  m_Layer: 0
  m_Name: Headgear_Left
  m_TagString: Untagged
  m_Icon: {fileID: 0}
  m_NavMeshLayer: 0
  m_StaticEditorFlags: 0
  m_IsActive: 1
--- !u!4 &7072444061591351698
Transform:
  m_ObjectHideFlags: 0
  m_CorrespondingSourceObject: {fileID: 0}
  m_PrefabInstance: {fileID: 0}
  m_PrefabAsset: {fileID: 0}
  m_GameObject: {fileID: 7072444061591711218}
  m_LocalRotation: {x: 0.47540557, y: -0.44884732, z: 0.5234402, w: 0.54638463}
  m_LocalPosition: {x: -8.526513e-14, y: -6.550316e-15, z: -13.487081}
  m_LocalScale: {x: 1, y: 1, z: 1}
  m_Children: []
  m_Father: {fileID: 7072444061591351726}
  m_RootOrder: 0
  m_LocalEulerAnglesHint: {x: 0, y: 0, z: 0}
--- !u!1 &7072444061591711220
GameObject:
  m_ObjectHideFlags: 0
  m_CorrespondingSourceObject: {fileID: 0}
  m_PrefabInstance: {fileID: 0}
  m_PrefabAsset: {fileID: 0}
  serializedVersion: 6
  m_Component:
  - component: {fileID: 7072444061591351700}
  m_Layer: 0
  m_Name: Headgear_Right
  m_TagString: Untagged
  m_Icon: {fileID: 0}
  m_NavMeshLayer: 0
  m_StaticEditorFlags: 0
  m_IsActive: 1
--- !u!4 &7072444061591351700
Transform:
  m_ObjectHideFlags: 0
  m_CorrespondingSourceObject: {fileID: 0}
  m_PrefabInstance: {fileID: 0}
  m_PrefabAsset: {fileID: 0}
  m_GameObject: {fileID: 7072444061591711220}
  m_LocalRotation: {x: -0.5234401, y: 0.5463846, z: 0.4754055, w: 0.44884726}
  m_LocalPosition: {x: 1.3088212, y: 3.871166, z: 12.853171}
  m_LocalScale: {x: 1, y: 1, z: 1}
  m_Children: []
  m_Father: {fileID: 7072444061591351726}
  m_RootOrder: 1
  m_LocalEulerAnglesHint: {x: 0, y: 0, z: 0}
--- !u!1 &7072444061591711222
GameObject:
  m_ObjectHideFlags: 0
  m_CorrespondingSourceObject: {fileID: 0}
  m_PrefabInstance: {fileID: 0}
  m_PrefabAsset: {fileID: 0}
  serializedVersion: 6
  m_Component:
  - component: {fileID: 7072444061591351702}
  m_Layer: 0
  m_Name: Hips
  m_TagString: Untagged
  m_Icon: {fileID: 0}
  m_NavMeshLayer: 0
  m_StaticEditorFlags: 0
  m_IsActive: 1
--- !u!4 &7072444061591351702
Transform:
  m_ObjectHideFlags: 0
  m_CorrespondingSourceObject: {fileID: 0}
  m_PrefabInstance: {fileID: 0}
  m_PrefabAsset: {fileID: 0}
  m_GameObject: {fileID: 7072444061591711222}
  m_LocalRotation: {x: -0.4582423, y: 0.5385295, z: -0.4582423, w: 0.5385295}
  m_LocalPosition: {x: -0, y: 1.0650933, z: 0.038611155}
  m_LocalScale: {x: 0.01, y: 0.01, z: 0.01}
  m_Children:
  - {fileID: 7072444061591351736}
  - {fileID: 7072444061591351738}
  - {fileID: 7072444061591351760}
  - {fileID: 7072444061591351756}
  - {fileID: 7072444061591351758}
  m_Father: {fileID: 7072444061591351794}
  m_RootOrder: 5
  m_LocalEulerAnglesHint: {x: 0, y: 0, z: 0}
--- !u!1 &7072444061591711224
GameObject:
  m_ObjectHideFlags: 0
  m_CorrespondingSourceObject: {fileID: 0}
  m_PrefabInstance: {fileID: 0}
  m_PrefabAsset: {fileID: 0}
  serializedVersion: 6
  m_Component:
  - component: {fileID: 7072444061591351704}
  m_Layer: 0
  m_Name: Index_Distal_Left
  m_TagString: Untagged
  m_Icon: {fileID: 0}
  m_NavMeshLayer: 0
  m_StaticEditorFlags: 0
  m_IsActive: 1
--- !u!4 &7072444061591351704
Transform:
  m_ObjectHideFlags: 0
  m_CorrespondingSourceObject: {fileID: 0}
  m_PrefabInstance: {fileID: 0}
  m_PrefabAsset: {fileID: 0}
  m_GameObject: {fileID: 7072444061591711224}
  m_LocalRotation: {x: -0.013842603, y: -0.01243883, z: 0.16401216, w: 0.98628277}
  m_LocalPosition: {x: -7.9783425, y: 5.684342e-14, z: -1.7763568e-15}
  m_LocalScale: {x: 1, y: 1, z: 1}
  m_Children: []
  m_Father: {fileID: 7072444061591351708}
  m_RootOrder: 0
  m_LocalEulerAnglesHint: {x: 0, y: 0, z: 0}
--- !u!1 &7072444061591711226
GameObject:
  m_ObjectHideFlags: 0
  m_CorrespondingSourceObject: {fileID: 0}
  m_PrefabInstance: {fileID: 0}
  m_PrefabAsset: {fileID: 0}
  serializedVersion: 6
  m_Component:
  - component: {fileID: 7072444061591351706}
  m_Layer: 0
  m_Name: Index_Distal_Right
  m_TagString: Untagged
  m_Icon: {fileID: 0}
  m_NavMeshLayer: 0
  m_StaticEditorFlags: 0
  m_IsActive: 1
--- !u!4 &7072444061591351706
Transform:
  m_ObjectHideFlags: 0
  m_CorrespondingSourceObject: {fileID: 0}
  m_PrefabInstance: {fileID: 0}
  m_PrefabAsset: {fileID: 0}
  m_GameObject: {fileID: 7072444061591711226}
  m_LocalRotation: {x: 0.012835801, y: 0.013473716, z: 0.08711711, w: 0.99602425}
  m_LocalPosition: {x: -7.9785438, y: 1.7053026e-13, z: 4.440892e-15}
  m_LocalScale: {x: 1, y: 1, z: 1}
  m_Children: []
  m_Father: {fileID: 7072444061591351710}
  m_RootOrder: 0
  m_LocalEulerAnglesHint: {x: 0, y: 0, z: 0}
--- !u!1 &7072444061591711228
GameObject:
  m_ObjectHideFlags: 0
  m_CorrespondingSourceObject: {fileID: 0}
  m_PrefabInstance: {fileID: 0}
  m_PrefabAsset: {fileID: 0}
  serializedVersion: 6
  m_Component:
  - component: {fileID: 7072444061591351708}
  m_Layer: 0
  m_Name: Index_Intermediate_Left
  m_TagString: Untagged
  m_Icon: {fileID: 0}
  m_NavMeshLayer: 0
  m_StaticEditorFlags: 0
  m_IsActive: 1
--- !u!4 &7072444061591351708
Transform:
  m_ObjectHideFlags: 0
  m_CorrespondingSourceObject: {fileID: 0}
  m_PrefabInstance: {fileID: 0}
  m_PrefabAsset: {fileID: 0}
  m_GameObject: {fileID: 7072444061591711228}
  m_LocalRotation: {x: 0.017964862, y: 0.041127786, z: 0.25889415, w: 0.96486247}
  m_LocalPosition: {x: -10.023557, y: -1.4210855e-13, z: 8.881784e-15}
  m_LocalScale: {x: 1, y: 1, z: 1}
  m_Children:
  - {fileID: 7072444061591351704}
  m_Father: {fileID: 7072444061591351680}
  m_RootOrder: 0
  m_LocalEulerAnglesHint: {x: 0, y: 0, z: 0}
--- !u!1 &7072444061591711230
GameObject:
  m_ObjectHideFlags: 0
  m_CorrespondingSourceObject: {fileID: 0}
  m_PrefabInstance: {fileID: 0}
  m_PrefabAsset: {fileID: 0}
  serializedVersion: 6
  m_Component:
  - component: {fileID: 7072444061591351710}
  m_Layer: 0
  m_Name: Index_Intermediate_Right
  m_TagString: Untagged
  m_Icon: {fileID: 0}
  m_NavMeshLayer: 0
  m_StaticEditorFlags: 0
  m_IsActive: 1
--- !u!4 &7072444061591351710
Transform:
  m_ObjectHideFlags: 0
  m_CorrespondingSourceObject: {fileID: 0}
  m_PrefabInstance: {fileID: 0}
  m_PrefabAsset: {fileID: 0}
  m_GameObject: {fileID: 7072444061591711230}
  m_LocalRotation: {x: -0.017963478, y: -0.041126773, z: 0.25885317, w: 0.96487355}
  m_LocalPosition: {x: -10.023805, y: -1.4210855e-13, z: -1.7763568e-15}
  m_LocalScale: {x: 1, y: 1, z: 1}
  m_Children:
  - {fileID: 7072444061591351706}
  m_Father: {fileID: 7072444061591351682}
  m_RootOrder: 0
  m_LocalEulerAnglesHint: {x: 0, y: 0, z: 0}
--- !u!1001 &3488453174708327842
PrefabInstance:
  m_ObjectHideFlags: 0
  serializedVersion: 2
  m_Modification:
    m_TransformParent: {fileID: 7072444061591351794}
    m_Modifications:
    - target: {fileID: 5931002978885236016, guid: b884a68a2ddc4fb418e75a34c353b52c, type: 3}
      propertyPath: m_RootBone
      value: 
      objectReference: {fileID: 7072444061591351702}
    - target: {fileID: 5931002978885236016, guid: b884a68a2ddc4fb418e75a34c353b52c, type: 3}
      propertyPath: m_Bones.Array.data[0]
      value: 
      objectReference: {fileID: 7072444061591351702}
    - target: {fileID: 5931002978885236016, guid: b884a68a2ddc4fb418e75a34c353b52c, type: 3}
      propertyPath: m_Bones.Array.data[1]
      value: 
      objectReference: {fileID: 7072444061591351760}
    - target: {fileID: 5931002978885236016, guid: b884a68a2ddc4fb418e75a34c353b52c, type: 3}
      propertyPath: m_Bones.Array.data[2]
      value: 
      objectReference: {fileID: 7072444061591351716}
    - target: {fileID: 5931002978885236016, guid: b884a68a2ddc4fb418e75a34c353b52c, type: 3}
      propertyPath: m_Bones.Array.data[3]
      value: 
      objectReference: {fileID: 7072444061591351792}
    - target: {fileID: 5931002978885236016, guid: b884a68a2ddc4fb418e75a34c353b52c, type: 3}
      propertyPath: m_Bones.Array.data[4]
      value: 
      objectReference: {fileID: 7072444061591351726}
    - target: {fileID: 5931002978885236016, guid: b884a68a2ddc4fb418e75a34c353b52c, type: 3}
      propertyPath: m_Bones.Array.data[5]
      value: 
      objectReference: {fileID: 7072444061591351698}
    - target: {fileID: 5931002978885236016, guid: b884a68a2ddc4fb418e75a34c353b52c, type: 3}
      propertyPath: m_Bones.Array.data[6]
      value: 
      objectReference: {fileID: 7072444061591351700}
    - target: {fileID: 5931002978885236016, guid: b884a68a2ddc4fb418e75a34c353b52c, type: 3}
      propertyPath: m_Bones.Array.data[7]
      value: 
      objectReference: {fileID: 7072444061591351776}
    - target: {fileID: 5931002978885236016, guid: b884a68a2ddc4fb418e75a34c353b52c, type: 3}
      propertyPath: m_Bones.Array.data[8]
      value: 
      objectReference: {fileID: 7072444061591351752}
    - target: {fileID: 5931002978885236016, guid: b884a68a2ddc4fb418e75a34c353b52c, type: 3}
      propertyPath: m_Bones.Array.data[9]
      value: 
      objectReference: {fileID: 7072444061591351686}
    - target: {fileID: 5931002978885236016, guid: b884a68a2ddc4fb418e75a34c353b52c, type: 3}
      propertyPath: m_Bones.Array.data[10]
      value: 
      objectReference: {fileID: 7072444061591351722}
    - target: {fileID: 5931002978885236016, guid: b884a68a2ddc4fb418e75a34c353b52c, type: 3}
      propertyPath: m_Bones.Array.data[11]
      value: 
      objectReference: {fileID: 7072444061591351804}
    - target: {fileID: 5931002978885236016, guid: b884a68a2ddc4fb418e75a34c353b52c, type: 3}
      propertyPath: m_Bones.Array.data[12]
      value: 
      objectReference: {fileID: 7072444061591351800}
    - target: {fileID: 5931002978885236016, guid: b884a68a2ddc4fb418e75a34c353b52c, type: 3}
      propertyPath: m_Bones.Array.data[13]
      value: 
      objectReference: {fileID: 7072444061591351796}
    - target: {fileID: 5931002978885236016, guid: b884a68a2ddc4fb418e75a34c353b52c, type: 3}
      propertyPath: m_Bones.Array.data[14]
      value: 
      objectReference: {fileID: 7072444061591351680}
    - target: {fileID: 5931002978885236016, guid: b884a68a2ddc4fb418e75a34c353b52c, type: 3}
      propertyPath: m_Bones.Array.data[15]
      value: 
      objectReference: {fileID: 7072444061591351708}
    - target: {fileID: 5931002978885236016, guid: b884a68a2ddc4fb418e75a34c353b52c, type: 3}
      propertyPath: m_Bones.Array.data[16]
      value: 
      objectReference: {fileID: 7072444061591351704}
    - target: {fileID: 5931002978885236016, guid: b884a68a2ddc4fb418e75a34c353b52c, type: 3}
      propertyPath: m_Bones.Array.data[17]
      value: 
      objectReference: {fileID: 7072444061591351770}
    - target: {fileID: 5931002978885236016, guid: b884a68a2ddc4fb418e75a34c353b52c, type: 3}
      propertyPath: m_Bones.Array.data[18]
      value: 
      objectReference: {fileID: 7072444061591351766}
    - target: {fileID: 5931002978885236016, guid: b884a68a2ddc4fb418e75a34c353b52c, type: 3}
      propertyPath: m_Bones.Array.data[19]
      value: 
      objectReference: {fileID: 7072444061591351762}
    - target: {fileID: 5931002978885236016, guid: b884a68a2ddc4fb418e75a34c353b52c, type: 3}
      propertyPath: m_Bones.Array.data[20]
      value: 
      objectReference: {fileID: 7072444061591351788}
    - target: {fileID: 5931002978885236016, guid: b884a68a2ddc4fb418e75a34c353b52c, type: 3}
      propertyPath: m_Bones.Array.data[21]
      value: 
      objectReference: {fileID: 7072444061591351784}
    - target: {fileID: 5931002978885236016, guid: b884a68a2ddc4fb418e75a34c353b52c, type: 3}
      propertyPath: m_Bones.Array.data[22]
      value: 
      objectReference: {fileID: 7072444061591351780}
    - target: {fileID: 5931002978885236016, guid: b884a68a2ddc4fb418e75a34c353b52c, type: 3}
      propertyPath: m_Bones.Array.data[23]
      value: 
      objectReference: {fileID: 7072444061591351778}
    - target: {fileID: 5931002978885236016, guid: b884a68a2ddc4fb418e75a34c353b52c, type: 3}
      propertyPath: m_Bones.Array.data[24]
      value: 
      objectReference: {fileID: 7072444061591351754}
    - target: {fileID: 5931002978885236016, guid: b884a68a2ddc4fb418e75a34c353b52c, type: 3}
      propertyPath: m_Bones.Array.data[25]
      value: 
      objectReference: {fileID: 7072444061591351688}
    - target: {fileID: 5931002978885236016, guid: b884a68a2ddc4fb418e75a34c353b52c, type: 3}
      propertyPath: m_Bones.Array.data[26]
      value: 
      objectReference: {fileID: 7072444061591351724}
    - target: {fileID: 5931002978885236016, guid: b884a68a2ddc4fb418e75a34c353b52c, type: 3}
      propertyPath: m_Bones.Array.data[27]
      value: 
      objectReference: {fileID: 7072444061591351806}
    - target: {fileID: 5931002978885236016, guid: b884a68a2ddc4fb418e75a34c353b52c, type: 3}
      propertyPath: m_Bones.Array.data[28]
      value: 
      objectReference: {fileID: 7072444061591351802}
    - target: {fileID: 5931002978885236016, guid: b884a68a2ddc4fb418e75a34c353b52c, type: 3}
      propertyPath: m_Bones.Array.data[29]
      value: 
      objectReference: {fileID: 7072444061591351798}
    - target: {fileID: 5931002978885236016, guid: b884a68a2ddc4fb418e75a34c353b52c, type: 3}
      propertyPath: m_Bones.Array.data[30]
      value: 
      objectReference: {fileID: 7072444061591351682}
    - target: {fileID: 5931002978885236016, guid: b884a68a2ddc4fb418e75a34c353b52c, type: 3}
      propertyPath: m_Bones.Array.data[31]
      value: 
      objectReference: {fileID: 7072444061591351710}
    - target: {fileID: 5931002978885236016, guid: b884a68a2ddc4fb418e75a34c353b52c, type: 3}
      propertyPath: m_Bones.Array.data[32]
      value: 
      objectReference: {fileID: 7072444061591351706}
    - target: {fileID: 5931002978885236016, guid: b884a68a2ddc4fb418e75a34c353b52c, type: 3}
      propertyPath: m_Bones.Array.data[33]
      value: 
      objectReference: {fileID: 7072444061591351772}
    - target: {fileID: 5931002978885236016, guid: b884a68a2ddc4fb418e75a34c353b52c, type: 3}
      propertyPath: m_Bones.Array.data[34]
      value: 
      objectReference: {fileID: 7072444061591351768}
    - target: {fileID: 5931002978885236016, guid: b884a68a2ddc4fb418e75a34c353b52c, type: 3}
      propertyPath: m_Bones.Array.data[35]
      value: 
      objectReference: {fileID: 7072444061591351764}
    - target: {fileID: 5931002978885236016, guid: b884a68a2ddc4fb418e75a34c353b52c, type: 3}
      propertyPath: m_Bones.Array.data[36]
      value: 
      objectReference: {fileID: 7072444061591351790}
    - target: {fileID: 5931002978885236016, guid: b884a68a2ddc4fb418e75a34c353b52c, type: 3}
      propertyPath: m_Bones.Array.data[37]
      value: 
      objectReference: {fileID: 7072444061591351786}
    - target: {fileID: 5931002978885236016, guid: b884a68a2ddc4fb418e75a34c353b52c, type: 3}
      propertyPath: m_Bones.Array.data[38]
      value: 
      objectReference: {fileID: 7072444061591351782}
    - target: {fileID: 5931002978885236016, guid: b884a68a2ddc4fb418e75a34c353b52c, type: 3}
      propertyPath: m_Bones.Array.data[39]
      value: 
      objectReference: {fileID: 7072444061591351742}
    - target: {fileID: 5931002978885236016, guid: b884a68a2ddc4fb418e75a34c353b52c, type: 3}
      propertyPath: m_Bones.Array.data[40]
      value: 
      objectReference: {fileID: 7072444061591351730}
    - target: {fileID: 5931002978885236016, guid: b884a68a2ddc4fb418e75a34c353b52c, type: 3}
      propertyPath: m_Bones.Array.data[41]
      value: 
      objectReference: {fileID: 7072444061591351734}
    - target: {fileID: 5931002978885236016, guid: b884a68a2ddc4fb418e75a34c353b52c, type: 3}
      propertyPath: m_Bones.Array.data[42]
      value: 
      objectReference: {fileID: 7072444061591351732}
    - target: {fileID: 5931002978885236016, guid: b884a68a2ddc4fb418e75a34c353b52c, type: 3}
      propertyPath: m_Bones.Array.data[43]
      value: 
      objectReference: {fileID: 7072444061591351756}
    - target: {fileID: 5931002978885236016, guid: b884a68a2ddc4fb418e75a34c353b52c, type: 3}
      propertyPath: m_Bones.Array.data[44]
      value: 
      objectReference: {fileID: 7072444061591351690}
    - target: {fileID: 5931002978885236016, guid: b884a68a2ddc4fb418e75a34c353b52c, type: 3}
      propertyPath: m_Bones.Array.data[45]
      value: 
      objectReference: {fileID: 7072444061591351718}
    - target: {fileID: 5931002978885236016, guid: b884a68a2ddc4fb418e75a34c353b52c, type: 3}
      propertyPath: m_Bones.Array.data[46]
      value: 
      objectReference: {fileID: 7072444061591351774}
    - target: {fileID: 5931002978885236016, guid: b884a68a2ddc4fb418e75a34c353b52c, type: 3}
      propertyPath: m_Bones.Array.data[47]
      value: 
      objectReference: {fileID: 7072444061591351746}
    - target: {fileID: 5931002978885236016, guid: b884a68a2ddc4fb418e75a34c353b52c, type: 3}
      propertyPath: m_Bones.Array.data[48]
      value: 
      objectReference: {fileID: 7072444061591351758}
    - target: {fileID: 5931002978885236016, guid: b884a68a2ddc4fb418e75a34c353b52c, type: 3}
      propertyPath: m_Bones.Array.data[49]
      value: 
      objectReference: {fileID: 7072444061591351692}
    - target: {fileID: 5931002978885236016, guid: b884a68a2ddc4fb418e75a34c353b52c, type: 3}
      propertyPath: m_Bones.Array.data[50]
      value: 
      objectReference: {fileID: 7072444061591351720}
    - target: {fileID: 5931002978885236016, guid: b884a68a2ddc4fb418e75a34c353b52c, type: 3}
      propertyPath: m_Bones.Array.data[51]
      value: 
      objectReference: {fileID: 7072444061591351744}
    - target: {fileID: 5931002978885236016, guid: b884a68a2ddc4fb418e75a34c353b52c, type: 3}
      propertyPath: m_Bones.Array.data[52]
      value: 
      objectReference: {fileID: 7072444061591351748}
    - target: {fileID: 5931002978885236016, guid: b884a68a2ddc4fb418e75a34c353b52c, type: 3}
      propertyPath: m_Bones.Array.data[53]
      value: 
      objectReference: {fileID: 7072444061591351738}
    - target: {fileID: 5931002978885236016, guid: b884a68a2ddc4fb418e75a34c353b52c, type: 3}
      propertyPath: m_Bones.Array.data[54]
      value: 
      objectReference: {fileID: 7072444061591351694}
    - target: {fileID: 5931002978885236016, guid: b884a68a2ddc4fb418e75a34c353b52c, type: 3}
      propertyPath: m_Bones.Array.data[55]
      value: 
      objectReference: {fileID: 7072444061591351750}
    - target: {fileID: 5931002978885236016, guid: b884a68a2ddc4fb418e75a34c353b52c, type: 3}
      propertyPath: m_Bones.Array.data[56]
      value: 
      objectReference: {fileID: 7072444061591351736}
    - target: {fileID: 5931002978896700446, guid: b884a68a2ddc4fb418e75a34c353b52c, type: 3}
      propertyPath: m_RootOrder
      value: 1
      objectReference: {fileID: 0}
    - target: {fileID: 5931002978896700446, guid: b884a68a2ddc4fb418e75a34c353b52c, type: 3}
      propertyPath: m_LocalPosition.x
      value: -118.131454
      objectReference: {fileID: 0}
    - target: {fileID: 5931002978896700446, guid: b884a68a2ddc4fb418e75a34c353b52c, type: 3}
      propertyPath: m_LocalPosition.y
      value: -98.01
      objectReference: {fileID: 0}
    - target: {fileID: 5931002978896700446, guid: b884a68a2ddc4fb418e75a34c353b52c, type: 3}
      propertyPath: m_LocalPosition.z
      value: -57.969975
      objectReference: {fileID: 0}
    - target: {fileID: 5931002978896700446, guid: b884a68a2ddc4fb418e75a34c353b52c, type: 3}
      propertyPath: m_LocalRotation.w
      value: 1
      objectReference: {fileID: 0}
    - target: {fileID: 5931002978896700446, guid: b884a68a2ddc4fb418e75a34c353b52c, type: 3}
      propertyPath: m_LocalRotation.x
      value: 0
      objectReference: {fileID: 0}
    - target: {fileID: 5931002978896700446, guid: b884a68a2ddc4fb418e75a34c353b52c, type: 3}
      propertyPath: m_LocalRotation.y
      value: -0
      objectReference: {fileID: 0}
    - target: {fileID: 5931002978896700446, guid: b884a68a2ddc4fb418e75a34c353b52c, type: 3}
      propertyPath: m_LocalRotation.z
      value: -0
      objectReference: {fileID: 0}
    - target: {fileID: 5931002978896700446, guid: b884a68a2ddc4fb418e75a34c353b52c, type: 3}
      propertyPath: m_LocalEulerAnglesHint.x
      value: 0
      objectReference: {fileID: 0}
    - target: {fileID: 5931002978896700446, guid: b884a68a2ddc4fb418e75a34c353b52c, type: 3}
      propertyPath: m_LocalEulerAnglesHint.y
      value: 0
      objectReference: {fileID: 0}
    - target: {fileID: 5931002978896700446, guid: b884a68a2ddc4fb418e75a34c353b52c, type: 3}
      propertyPath: m_LocalEulerAnglesHint.z
      value: 0
      objectReference: {fileID: 0}
    - target: {fileID: 5931002978896738366, guid: b884a68a2ddc4fb418e75a34c353b52c, type: 3}
      propertyPath: m_Name
      value: AssaultRifle
      objectReference: {fileID: 0}
    m_RemovedComponents: []
  m_SourcePrefab: {fileID: 100100000, guid: b884a68a2ddc4fb418e75a34c353b52c, type: 3}
--- !u!4 &7072444061591351740 stripped
Transform:
  m_CorrespondingSourceObject: {fileID: 5931002978896700446, guid: b884a68a2ddc4fb418e75a34c353b52c, type: 3}
  m_PrefabInstance: {fileID: 3488453174708327842}
  m_PrefabAsset: {fileID: 0}
